[
  {
    "title": "Agency",
    "is_pro": false,
    "type": "elementor",
    "author": "Bosa Themes",
    "keywords": ["agency", "multipurpose"],
    "categories": ["business"],
    "template_url": {
      "content": "https://gitlab.com/btdevs/bt-toolset-demos/-/raw/main/bosa/demos/agency/content.json",
      "options": "https://gitlab.com/btdevs/bt-toolset-demos/-/raw/main/bosa/demos/agency/options.json",
      "widgets": "https://gitlab.com/btdevs/bt-toolset-demos/-/raw/main/bosa/demos/agency/widgets.json"
    },
    "screenshot_url": "https://gitlab.com/btdevs/bt-toolset-demos/-/raw/main/bosa/screenshots/bosa-agency-250-300.jpg",
    "demo_url": "https://demo.bosathemes.com/bosa/agency/",
    "plugins": [
      {
        "name": "Contact Form 7",
        "slug": "contact-form-7",
        "main_file": "wp-contact-form-7.php"
      },
      {
        "name": "Sina Extension for Elementor",
        "slug": "sina-extension-for-elementor"
      },
      {
        "name": "WooCommerce",
        "slug": "woocommerce"
      }
    ]
  },
  {
    "title": "Garden Care",
    "is_pro": true,
    "pro_url": "https://bosathemes.com/bosa-pro/#pricing",
    "type": "elementor",
    "author": "Bosa Themes",
    "keywords": ["agriculture", "florists", "garden", "groundskeepers", "landscaping"],
    "categories": ["business"],
    "template_url": { },
    "screenshot_url": "https://gitlab.com/btdevs/bt-toolset-demos/-/raw/main/bosa/screenshots/bosa-garden-care-250-300.jpg",
    "demo_url": "https://demo.bosathemes.com/bosa/garden-care/",
    "plugins": []
  },
  {
    "title": "Garden Care Pro",
    "is_pro": true,
    "pro_url": "https://bosathemes.com/bosa-pro/#pricing",
    "type": "elementor",
    "author": "Bosa Themes",
    "keywords": ["agriculture", "florists", "garden", "groundskeepers", "landscaping", "Pro"],
    "categories": ["business"],
    "template_url": {
    },
    "screenshot_url": "https://gitlab.com/btdevs/bt-toolset-demos/-/raw/main/bosa/screenshots/bosa-garden-care-pro-250-300.jpg",
    "demo_url": "https://demo.bosathemes.com/bosa/garden-care-pro/",
    "plugins": []
  },
  {
    "title": "Creative Agency",
    "is_pro": true,
    "pro_url": "https://bosathemes.com/bosa-pro/#pricing",
    "type": "elementor",
    "author": "Bosa Themes",
    "keywords": ["agency", "business", "portfolio", "creative", "design"],
    "categories": ["business"],
    "template_url": {
    },
    "screenshot_url": "https://gitlab.com/btdevs/bt-toolset-demos/-/raw/main/bosa/screenshots/bosa-creative-agency-250-300.jpg",
    "demo_url": "https://demo.bosathemes.com/bosa/creative-agency/",
    "plugins": []
  },
  {
    "title": "Creative Agency Pro",
    "is_pro": true,
    "pro_url": "https://bosathemes.com/bosa-pro/#pricing",
    "type": "elementor",
    "author": "Bosa Themes",
    "keywords": ["agency", "business", "portfolio", "creative", "design", "pro"],
    "categories": ["business"],
    "template_url": {
    },
    "screenshot_url": "https://gitlab.com/btdevs/bt-toolset-demos/-/raw/main/bosa/screenshots/bosa-creative-agency-pro-250-300.jpg",
    "demo_url": "https://demo.bosathemes.com/bosa/creative-agency-pro/",
    "plugins": []
  },
  {
    "title": "University",
    "is_pro": true,
    "pro_url": "https://bosathemes.com/bosa-pro/#pricing",
    "type": "elementor",
    "author": "Bosa Themes",
    "keywords": ["education", "elearning", "learning", "study", "teaching"],
    "categories": ["education"],
    "template_url": {
    },
    "screenshot_url": "https://gitlab.com/btdevs/bt-toolset-demos/-/raw/main/bosa/screenshots/bosa-university-250-300.jpg",
    "demo_url": "https://demo.bosathemes.com/bosa/university/",
    "plugins": []
  },
  {
    "title": "University Pro",
    "is_pro": true,
    "pro_url": "https://bosathemes.com/bosa-pro/#pricing",
    "type": "elementor",
    "author": "Bosa Themes",
    "keywords": ["education", "elearning", "learning", "study", "teaching", "pro"],
    "categories": ["education"],
    "template_url": {
    },
    "screenshot_url": "https://gitlab.com/btdevs/bt-toolset-demos/-/raw/main/bosa/screenshots/bosa-university-pro-250-300.jpg",
    "demo_url": "https://demo.bosathemes.com/bosa/university-pro/",
    "plugins": []
  },
  {
    "title": "IT Services",
    "is_pro": true,
    "pro_url": "https://bosathemes.com/bosa-pro/#pricing",
    "type": "elementor",
    "author": "Bosa Themes",
    "keywords": ["technology", "it", "services", "software", "data"],
    "categories": ["business"],
    "template_url": {
    },
    "screenshot_url": "https://gitlab.com/btdevs/bt-toolset-demos/-/raw/main/bosa/screenshots/bosa-it-services-250-300.jpg",
    "demo_url": "https://demo.bosathemes.com/bosa/it-services/",
    "plugins": []
  },
  {
    "title": "IT Services Pro",
    "is_pro": true,
    "pro_url": "https://bosathemes.com/bosa-pro/#pricing",
    "type": "elementor",
    "author": "Bosa Themes",
    "keywords": ["technology", "it", "services", "software", "data", "pro"],
    "categories": ["business"],
    "template_url": {
    },
    "screenshot_url": "https://gitlab.com/btdevs/bt-toolset-demos/-/raw/main/bosa/screenshots/bosa-it-services-pro-250-300.jpg",
    "demo_url": "https://demo.bosathemes.com/bosa/it-services-pro/",
    "plugins": []
  },
  {
    "title": "Clinic",
    "is_pro": true,
    "pro_url": "https://bosathemes.com/bosa-pro/#pricing",
    "type": "elementor",
    "author": "Bosa Themes",
    "keywords": ["clinic", "dentist", "doctor", "health", "medical"],
    "categories": ["business"],
    "template_url": {
    },
    "screenshot_url": "https://gitlab.com/btdevs/bt-toolset-demos/-/raw/main/bosa/screenshots/bosa-clinic-250-300.jpg",
    "demo_url": "https://demo.bosathemes.com/bosa/clinic/",
    "plugins": []
  },
  {
    "title": "Clinic Pro",
    "is_pro": true,
    "pro_url": "https://bosathemes.com/bosa-pro/#pricing",
    "type": "elementor",
    "author": "Bosa Themes",
    "keywords": ["clinic", "dentist", "doctor", "health", "medical", "Pro"],
    "categories": ["business"],
    "template_url": {
    },
    "screenshot_url": "https://gitlab.com/btdevs/bt-toolset-demos/-/raw/main/bosa/screenshots/bosa-clinic-pro-250-300.jpg",
    "demo_url": "https://demo.bosathemes.com/bosa/clinic-pro/",
    "plugins": []
  },
  {
    "title": "Crypto",
    "is_pro": true,
    "pro_url": "https://bosathemes.com/bosa-pro/#pricing",
    "type": "elementor",
    "author": "Bosa Themes",
    "keywords": ["bitcoin", "blockchain", "coin", "crypto", "digital"],
    "categories": ["business"],
    "template_url": {
    },
    "screenshot_url": "https://gitlab.com/btdevs/bt-toolset-demos/-/raw/main/bosa/screenshots/bosa-crypto-250-300.jpg",
    "demo_url": "https://demo.bosathemes.com/bosa/crypto/",
    "plugins": []
  },
  {
    "title": "Crypto Pro",
    "is_pro": true,
    "pro_url": "https://bosathemes.com/bosa-pro/#pricing",
    "type": "elementor",
    "author": "Bosa Themes",
    "keywords": ["bitcoin", "blockchain", "coin", "crypto", "digital", "pro"],
    "categories": ["business"],
    "template_url": {
    },
    "screenshot_url": "https://gitlab.com/btdevs/bt-toolset-demos/-/raw/main/bosa/screenshots/bosa-crypto-pro-250-300.jpg",
    "demo_url": "https://demo.bosathemes.com/bosa/crypto-pro/",
    "plugins": []
  },
  {
    "title": "Logistics",
    "is_pro": true,
    "type": "elementor",
    "pro_url": "https://bosathemes.com/bosa-pro/#pricing",
    "author": "Bosa Themes",
    "keywords": ["cargo", "shipping", "transport", "inventory", "business"],
    "categories": ["business"],
    "template_url": {
    },
    "screenshot_url": "https://gitlab.com/btdevs/bt-toolset-demos/-/raw/main/bosa/screenshots/bosa-logistics-250-300.jpg",
    "demo_url": "https://demo.bosathemes.com/bosa/logistics/",
    "plugins": []
  },
  {
    "title": "Logistics Pro",
    "is_pro": true,
    "pro_url": "https://bosathemes.com/bosa-pro/#pricing",
    "type": "elementor",
    "author": "Bosa Themes",
    "keywords": ["cargo", "shipping", "transport", "inventory", "business", "pro"],
    "categories": ["business"],
    "template_url": {
    },
    "screenshot_url": "https://gitlab.com/btdevs/bt-toolset-demos/-/raw/main/bosa/screenshots/bosa-logistics-pro-250-300.jpg",
    "demo_url": "https://demo.bosathemes.com/bosa/logistics-pro/",
    "plugins": []
  },
  {
    "title": "Yoga",
    "is_pro": true,
    "pro_url": "https://bosathemes.com/bosa-pro/#pricing",
    "type": "elementor",
    "author": "Bosa Themes",
    "keywords": ["meditation", "spa", "asana", "fitness", "yoga"],
    "categories": ["business"],
    "template_url": {
    },
    "screenshot_url": "https://gitlab.com/btdevs/bt-toolset-demos/-/raw/main/bosa/screenshots/bosa-yoga-250-300.jpg",
    "demo_url": "https://demo.bosathemes.com/bosa/yoga/",
    "plugins": []
  },
  {
    "title": "Yoga Pro",
    "is_pro": true,
    "pro_url": "https://bosathemes.com/bosa-pro/#pricing",
    "type": "elementor",
    "author": "Bosa Themes",
    "keywords": ["meditation", "spa", "asana", "fitness", "yoga", "pro"],
    "categories": ["business"],
    "template_url": {
    },
    "screenshot_url": "https://gitlab.com/btdevs/bt-toolset-demos/-/raw/main/bosa/screenshots/bosa-yoga-pro-250-300.jpg",
    "demo_url": "https://demo.bosathemes.com/bosa/yoga-pro/",
    "plugins": []
  },
  {
    "title": "Veterinary",
    "is_pro": true,
    "pro_url": "https://bosathemes.com/bosa-pro/#pricing",
    "type": "elementor",
    "author": "Bosa Themes",
    "keywords": ["animal", "care", "pet", "salon", "vet"],
    "categories": ["business"],
    "template_url": {
    },
    "screenshot_url": "https://gitlab.com/btdevs/bt-toolset-demos/-/raw/main/bosa/screenshots/bosa-veterinary-250-300.jpg",
    "demo_url": "https://demo.bosathemes.com/bosa/veterinary/",
    "plugins": []
  },
  {
    "title": "Veterinary Pro",
    "is_pro": true,
    "pro_url": "https://bosathemes.com/bosa-pro/#pricing",
    "type": "elementor",
    "author": "Bosa Themes",
    "keywords": ["animal", "care", "pet", "salon", "vet", "pro"],
    "categories": ["business"],
    "template_url": {
    },
    "screenshot_url": "https://gitlab.com/btdevs/bt-toolset-demos/-/raw/main/bosa/screenshots/bosa-veterinary-pro-250-300.jpg",
    "demo_url": "https://demo.bosathemes.com/bosa/veterinary-pro/",
    "plugins": []
  },
  {
    "title": "Cleaning Service",
    "pro_url": "https://bosathemes.com/bosa-pro/#pricing",
    "is_pro": true,
    "type": "elementor",
    "author": "Bosa Themes",
    "keywords": ["cleaner", "clean", "laundry", "cleaning agency", "office cleaning"],
    "categories": ["business"],
    "template_url": {
    },
    "screenshot_url": "https://gitlab.com/btdevs/bt-toolset-demos/-/raw/main/bosa/screenshots/bosa-cleaning-service-250-300.jpg",
    "demo_url": "https://demo.bosathemes.com/bosa/cleaning-service/",
    "plugins": [
    ]
  },
  {
    "title": "Cleaning Service Pro",
    "is_pro": true,
    "pro_url": "https://bosathemes.com/bosa-pro/#pricing",
    "type": "elementor",
    "author": "Bosa Themes",
    "keywords": ["cleaner", "clean", "laundry", "cleaning agency", "office cleaning", "Pro"],
    "categories": ["business"],
    "template_url": {
    },
    "screenshot_url": "https://gitlab.com/btdevs/bt-toolset-demos/-/raw/main/bosa/screenshots/bosa-cleaning-service-pro-250-300.jpg",
    "demo_url": "https://demo.bosathemes.com/bosa/cleaning-service-pro/",
    "plugins": []
  },
  {
    "title": "Interior Design",
    "is_pro": true,
    "pro_url": "https://bosathemes.com/bosa-pro/#pricing",
    "type": "elementor",
    "author": "Bosa Themes",
    "keywords": ["interior", "renovation", "decor", "design", "stylish"],
    "categories": ["business"],
    "template_url": {
    },
    "screenshot_url": "https://gitlab.com/btdevs/bt-toolset-demos/-/raw/main/bosa/screenshots/bosa-interior-design-250-300.jpg",
    "demo_url": "https://demo.bosathemes.com/bosa/interior-design/",
    "plugins": []
  },
  {
    "title": "Interior Design Pro",
    "is_pro": true,
    "pro_url": "https://bosathemes.com/bosa-pro/#pricing",
    "type": "elementor",
    "author": "Bosa Themes",
    "keywords": ["interior", "renovation", "decor", "design", "stylish", "Pro"],
    "categories": ["business"],
    "template_url": {
    },
    "screenshot_url": "https://gitlab.com/btdevs/bt-toolset-demos/-/raw/main/bosa/screenshots/bosa-interior-design-pro-250-300.jpg",
    "demo_url": "https://demo.bosathemes.com/bosa/interior-design-pro/",
    "plugins": []
  },
  {
    "title": "Photograph",
    "is_pro": true,
    "pro_url": "https://bosathemes.com/bosa-pro/#pricing",
    "type": "elementor",
    "author": "Bosa Themes",
    "keywords": ["blog", "photographer", "showcase", "studio", "videography"],
    "categories": ["business"],
    "template_url": {
    },
    "screenshot_url": "https://gitlab.com/btdevs/bt-toolset-demos/-/raw/main/bosa/screenshots/bosa-photograph-250-300.jpg",
    "demo_url": "https://demo.bosathemes.com/bosa/photograph/",
    "plugins": [
    ]
  },
  {
    "title": "Business Firm",
    "is_pro": true,
    "pro_url": "https://bosathemes.com/bosa-pro/#pricing",
    "type": "elementor",
    "author": "Bosa Themes",
    "keywords": ["business", "finance", "accountant", "analytical", "broker"],
    "categories": ["business"],
    "template_url": {
    },
    "screenshot_url": "https://gitlab.com/btdevs/bt-toolset-demos/-/raw/main/bosa/screenshots/bosa-business-firm-250-300.jpg",
    "demo_url": "https://demo.bosathemes.com/bosa/business-firm/",
    "plugins": [
    ]
  },  
  {
    "title": "Business Firm pro",
    "is_pro": true,
    "pro_url": "https://bosathemes.com/bosa-pro/#pricing",
    "type": "elementor",
    "author": "Bosa Themes",
    "keywords": ["business", "finance", "accountant", "analytical", "broker", "pro"],
    "categories": ["business"],
    "template_url": {
    },
    "screenshot_url": "https://gitlab.com/btdevs/bt-toolset-demos/-/raw/main/bosa/screenshots/bosa-business-firm-pro-250-300.jpg",
    "demo_url": "https://demo.bosathemes.com/bosa/business-firm-pro/",
    "plugins": [
    ]
  },
  {
    "title": "Media Marketing",
    "is_pro": true,
    "pro_url": "https://bosathemes.com/bosa-pro/#pricing",
    "type": "elementor",
    "author": "Bosa Themes",
    "keywords": ["agency", "digital marketing", "social", "media", "advertising"],
    "categories": ["marketing"],
    "template_url": {
    },
    "screenshot_url": "https://gitlab.com/btdevs/bt-toolset-demos/-/raw/main/bosa/screenshots/bosa-media-marketing-250-300.jpg",
    "demo_url": "https://demo.bosathemes.com/bosa/media-marketing/",
    "plugins": [
    ]
  },
  {
    "title": "Media Marketing Pro",
    "is_pro": true,
    "pro_url": "https://bosathemes.com/bosa-pro/#pricing",
    "type": "elementor",
    "author": "Bosa Themes",
    "keywords": ["agency", "digital marketing", "social", "media", "advertising", "pro"],
    "categories": ["marketing"],
    "template_url": {
    },
    "screenshot_url": "https://gitlab.com/btdevs/bt-toolset-demos/-/raw/main/bosa/screenshots/bosa-media-marketing-pro-250-300.jpg",
    "demo_url": "https://demo.bosathemes.com/bosa/media-marketing-pro/",
    "plugins": [
    ]
  },
  {
    "title": "Hotel",
    "is_pro": true,
    "pro_url": "https://bosathemes.com/bosa-pro/#pricing",
    "type": "elementor",
    "author": "Bosa Themes",
    "keywords": ["accommodation", "hotel", "resort", "travel"],
    "categories": ["business"],
    "template_url": {
    },
    "screenshot_url": "https://gitlab.com/btdevs/bt-toolset-demos/-/raw/main/bosa/screenshots/bosa-hotel-250-300.jpg",
    "demo_url": "https://demo.bosathemes.com/bosa/hotel/",
    "plugins": [
    ]
  },
  {
    "title": "Hotel Pro",
    "is_pro": true,
    "pro_url": "https://bosathemes.com/bosa-pro/#pricing",
    "type": "elementor",
    "author": "Bosa Themes",
    "keywords": ["accommodation", "hotel", "resort", "travel", "pro"],
    "categories": ["business"],
    "template_url": {
    },
    "screenshot_url": "https://gitlab.com/btdevs/bt-toolset-demos/-/raw/main/bosa/screenshots/bosa-hotel-pro-250-300.jpg",
    "demo_url": "https://demo.bosathemes.com/bosa/hotel-pro/",
    "plugins": [
    ]
  },
  {
    "title": "Kids Education",
    "is_pro": true,
    "pro_url": "https://bosathemes.com/bosa-pro/#pricing",
    "type": "elementor",
    "author": "Bosa Themes",
    "keywords": ["education", "learning", "pro", "multipurpose"],
    "categories": ["education"],
    "template_url": {
    },
    "screenshot_url": "https://gitlab.com/btdevs/bt-toolset-demos/-/raw/main/bosa/screenshots/bosa-kids-education-250-300.jpg",
    "demo_url": "https://demo.bosathemes.com/bosa/kids-education/",
    "plugins": [
    ]
  },
  {
    "title": "AI Robotics",
    "is_pro": true,
    "pro_url": "https://bosathemes.com/bosa-pro/#pricing",
    "type": "elementor",
    "author": "Bosa Themes",
    "keywords": ["ai", "robotics", "deep learning", "machine learning"],
    "categories": ["technology"],
    "template_url": {
    },
    "screenshot_url": "https://gitlab.com/btdevs/bt-toolset-demos/-/raw/main/bosa/screenshots/bosa-ai-robotics-250-300.jpg",
    "demo_url": "https://demo.bosathemes.com/bosa/ai-robotics/",
    "plugins": [
    ]
  },
  {
    "title": "AI Robotics Pro",
    "is_pro": true,
    "pro_url": "https://bosathemes.com/bosa-pro/#pricing",
    "type": "elementor",
    "author": "Bosa Themes",
    "keywords": ["ai", "ai pro", "robotics", "deep learning", "machine learning", "pro"],
    "categories": ["technology"],
    "template_url": {
    },
    "screenshot_url": "https://gitlab.com/btdevs/bt-toolset-demos/-/raw/main/bosa/screenshots/bosa-ai-robotics-pro-250-300.jpg",
    "demo_url": "https://demo.bosathemes.com/bosa/ai-robotics-pro/",
    "plugins": [
    ]
  },
  {
    "title": "Plumber",
    "is_pro": true,
    "pro_url": "https://bosathemes.com/bosa-pro/#pricing",
    "type": "elementor",
    "author": "Bosa Themes",
    "keywords": ["plumber", "repair", "maintenance", "handyman"],
    "categories": ["business"],
    "template_url": {
    },
    "screenshot_url": "https://gitlab.com/btdevs/bt-toolset-demos/-/raw/main/bosa/screenshots/bosa-plumber-250-300.jpg",
    "demo_url": "https://demo.bosathemes.com/bosa/plumber/",
    "plugins": [
    ]
  },
  {
    "title": "Plumber Pro",
    "is_pro": true,
    "pro_url": "https://bosathemes.com/bosa-pro/#pricing",
    "type": "elementor",
    "author": "Bosa Themes",
    "keywords": ["plumber", "repair", "maintenance", "handyman", "plumber pro", "pro"],
    "categories": ["business"],
    "template_url": {
    },
    "screenshot_url": "https://gitlab.com/btdevs/bt-toolset-demos/-/raw/main/bosa/screenshots/bosa-plumber-pro-250-300.jpg",
    "demo_url": "https://demo.bosathemes.com/bosa/plumber-pro/",
    "plugins": [
    ]
  },
  {
    "title": "Educare",
    "is_pro": true,
    "pro_url": "https://bosathemes.com/bosa-pro/#pricing",
    "type": "elementor",
    "author": "Bosa Themes",
    "keywords": ["education", "learning", "university", "multipurpose"],
    "categories": ["education"],
    "template_url": {
    },
    "screenshot_url": "https://gitlab.com/btdevs/bt-toolset-demos/-/raw/main/bosa/screenshots/bosa-educare-250-300.jpg",
    "demo_url": "https://demo.bosathemes.com/bosa/educare/",
    "plugins": [
    ]
  },
  {
    "title": "Educare Pro",
    "is_pro": true,
    "pro_url": "https://bosathemes.com/bosa-pro/#pricing",
    "type": "elementor",
    "author": "Bosa Themes",
    "keywords": ["education", "learning", "pro", "multipurpose"],
    "categories": ["education"],
    "template_url": {
    },
    "screenshot_url": "https://gitlab.com/btdevs/bt-toolset-demos/-/raw/main/bosa/screenshots/bosa-educare-pro-250-300.jpg",
    "demo_url": "https://demo.bosathemes.com/bosa/educare-pro/",
    "plugins": [
    ]
  },
  {
    "title": "Mobile App",
    "is_pro": true,
    "pro_url": "https://bosathemes.com/bosa-pro/#pricing",
    "type": "elementor",
    "author": "Bosa Themes",
    "keywords": ["app", "mobile", "application", "technology"],
    "categories": ["tech business"],
    "template_url": {
    },
    "screenshot_url": "https://gitlab.com/btdevs/bt-toolset-demos/-/raw/main/bosa/screenshots/bosa-mobile-app-250-300.jpg",
    "demo_url": "https://demo.bosathemes.com/bosa/mobile-app/",
    "plugins": [
    ]
  },
  {
    "title": "Business Agency Pro",
    "is_pro": true,
    "pro_url": "https://bosathemes.com/bosa-pro/#pricing",
    "type": "elementor",
    "author": "Bosa Themes",
    "keywords": ["business", "agency", "pro", "multipurpose"],
    "categories": ["business"],
    "template_url": {
    },
    "screenshot_url": "https://gitlab.com/btdevs/bt-toolset-demos/-/raw/main/bosa/screenshots/bosa-business-agency-pro-250-300.jpg",
    "demo_url": "https://demo.bosathemes.com/bosa/business-agency-pro/",
    "plugins": [
    ]
  },
  {
    "title": "Dental Care",
    "is_pro": true,
    "pro_url": "https://bosathemes.com/bosa-pro/#pricing",
    "type": "elementor",
    "author": "Bosa Themes",
    "keywords": ["dental", "orthodontist", "medical", "health", "clinic"],
    "categories": ["medical"],
    "template_url": {
    },
    "screenshot_url": "https://gitlab.com/btdevs/bt-toolset-demos/-/raw/main/bosa/screenshots/bosa-dental-care-250-300.jpg",
    "demo_url": "https://demo.bosathemes.com/bosa/dental-care/",
    "plugins": [
    ]
  },
  {
    "title": "Accounting Pro",
    "is_pro": true,
    "pro_url": "https://bosathemes.com/bosa-pro/#pricing",
    "type": "elementor",
    "author": "Bosa Themes",
    "keywords": ["account", "report", "business", "multipurpose"],
    "categories": ["business"],
    "template_url": {
    },
    "screenshot_url": "https://gitlab.com/btdevs/bt-toolset-demos/-/raw/main/bosa/screenshots/bosa-accounting-pro-250-300.jpg",
    "demo_url": "https://demo.bosathemes.com/bosa/accounting-pro/",
    "plugins": [
    ]
  },
  {
    "title": "Accounting",
    "is_pro": true,
    "pro_url": "https://bosathemes.com/bosa-pro/#pricing",
    "type": "elementor",
    "author": "Bosa Themes",
    "keywords": ["account", "report", "business", "multipurpose"],
    "categories": ["business"],
    "template_url": {
    },
    "screenshot_url": "https://gitlab.com/btdevs/bt-toolset-demos/-/raw/main/bosa/screenshots/bosa-accounting-250-300.jpg",
    "demo_url": "https://demo.bosathemes.com/bosa/accounting/",
    "plugins": [
    ]
  },
  {
    "title": "Corpo Pro",
    "is_pro": true,
    "pro_url": "https://bosathemes.com/bosa-pro/#pricing",
    "type": "elementor",
    "author": "Bosa Themes",
    "keywords": ["corpo", "business", "firm", "multipurpose"],
    "categories": ["business"],
    "template_url": {
    },
    "screenshot_url": "https://gitlab.com/btdevs/bt-toolset-demos/-/raw/main/bosa/screenshots/bosa-corpo-pro-250-300.jpg",
    "demo_url": "https://demo.bosathemes.com/bosa/corpo-pro/",
    "plugins": [
    ]
  },
  {
    "title": "Corpo",
    "is_pro": true,
    "pro_url": "https://bosathemes.com/bosa-pro/#pricing",
    "type": "elementor",
    "author": "Bosa Themes",
    "keywords": ["corpo", "company", "corporate", "business", "multipurpose"],
    "categories": ["business"],
    "template_url": {
    },
    "screenshot_url": "https://gitlab.com/btdevs/bt-toolset-demos/-/raw/main/bosa/screenshots/bosa-corpo-250-300.jpg",
    "demo_url": "https://demo.bosathemes.com/bosa/corpo/",
    "plugins": [
      {
        "name": "WooCommerce",
        "slug": "woocommerce"
      }
    ]
  },
  {
    "title": "Medical 03",
    "is_pro": true,
    "pro_url": "https://bosathemes.com/bosa-pro/#pricing",
    "type": "elementor",
    "author": "Bosa Themes",
    "keywords": ["medical", "multipurpose"],
    "categories": ["others"],
    "template_url": {
    },
    "screenshot_url": "https://gitlab.com/btdevs/bt-toolset-demos/-/raw/main/bosa/screenshots/bosa-medical-03-250-300.jpg",
    "demo_url": "https://demo.bosathemes.com/bosa/medical-03/",
    "plugins": [
    ]
  },
  {
    "title": "Portfolio Resume",
    "is_pro": true,
    "type": "elementor",
    "author": "Bosa Themes",
    "keywords": ["resume", "portfolio", "cv", "bio", "multipurpose"],
    "categories": ["business"],
    "template_url": {
      "content": "https://gitlab.com/btdevs/bt-toolset-demos/-/raw/main/bosa/demos/portfolio-resume/content.json",
      "options": "https://gitlab.com/btdevs/bt-toolset-demos/-/raw/main/bosa/demos/portfolio-resume/options.json",
      "widgets": "https://gitlab.com/btdevs/bt-toolset-demos/-/raw/main/bosa/demos/portfolio-resume/widgets.json"
    },
    "screenshot_url": "https://gitlab.com/btdevs/bt-toolset-demos/-/raw/main/bosa/screenshots/bosa-portfolio-resume-250-300.jpg",
    "demo_url": "https://demo.bosathemes.com/bosa/portfolio-resume/",
    "plugins": [
    ]
  },
  {
    "title": "Kindergarten",
    "is_pro": true,
    "pro_url": "https://bosathemes.com/bosa-pro/#pricing",
    "type": "elementor",
    "author": "Bosa Themes",
    "keywords": ["school", "nursery", "Kindergarten", "education", "multipurpose"],
    "categories": ["business"],
    "template_url": {
      "content": "https://gitlab.com/btdevs/bt-toolset-demos/-/raw/main/bosa/demos/kindergarten/content.json",
      "options": "https://gitlab.com/btdevs/bt-toolset-demos/-/raw/main/bosa/demos/kindergarten/options.json",
      "widgets": "https://gitlab.com/btdevs/bt-toolset-demos/-/raw/main/bosa/demos/kindergarten/widgets.json"
    },
    "screenshot_url": "https://gitlab.com/btdevs/bt-toolset-demos/-/raw/main/bosa/screenshots/bosa-kindergarten-250-300.jpg",
    "demo_url": "https://demo.bosathemes.com/bosa/kindergarten/",
    "plugins": [
    ]
  },
  {
    "title": "Finance Business",
    "is_pro": true,
    "pro_url": "https://bosathemes.com/bosa-pro/#pricing",
    "type": "elementor",
    "author": "Bosa Themes",
    "keywords": ["business", "finance", "multipurpose"],
    "categories": ["business"],
    "template_url": {
      "content": "https://gitlab.com/btdevs/bt-toolset-demos/-/raw/main/bosa/demos/finance-business/content.json",
      "options": "https://gitlab.com/btdevs/bt-toolset-demos/-/raw/main/bosa/demos/finance-business/options.json",
      "widgets": "https://gitlab.com/btdevs/bt-toolset-demos/-/raw/main/bosa/demos/finance-business/widgets.json"
    },
    "screenshot_url": "https://gitlab.com/btdevs/bt-toolset-demos/-/raw/main/bosa/screenshots/bosa-finance-business-250-300.jpg",
    "demo_url": "https://demo.bosathemes.com/bosa/finance-business/",
    "plugins": [
    ]
  },
  {
    "title": "Consultancy 02",
    "is_pro": true,
    "pro_url": "https://bosathemes.com/bosa-pro/#pricing",
    "type": "elementor",
    "author": "Bosa Themes",
    "keywords": ["consultancy", "multipurpose"],
    "categories": ["others"],
    "template_url": {
    },
    "screenshot_url": "https://gitlab.com/btdevs/bt-toolset-demos/-/raw/main/bosa/screenshots/bosa-consultancy-02-250-300.jpg",
    "demo_url": "https://demo.bosathemes.com/bosa/consultancy-02/",
    "plugins": [
    ]
  },
  {
    "title": "Marketing 02",
    "is_pro": true,
    "pro_url": "https://bosathemes.com/bosa-pro/#pricing",
    "type": "elementor",
    "author": "Bosa Themes",
    "keywords": ["marketing", "multipurpose"],
    "categories": ["others"],
    "template_url": {
    },
    "screenshot_url": "https://gitlab.com/btdevs/bt-toolset-demos/-/raw/main/bosa/screenshots/bosa-marketing-02-250-300.jpg",
    "demo_url": "https://demo.bosathemes.com/bosa/marketing-02/",
    "plugins": [
    ]
  },
  {
    "title": "Medical 02",
    "is_pro": true,
    "pro_url": "https://bosathemes.com/bosa-pro/#pricing",
    "type": "elementor",
    "author": "Bosa Themes",
    "keywords": ["medical", "multipurpose"],
    "categories": ["others"],
    "template_url": {
    },
    "screenshot_url": "https://gitlab.com/btdevs/bt-toolset-demos/-/raw/main/bosa/screenshots/bosa-medical-02-250-300.jpg",
    "demo_url": "https://demo.bosathemes.com/bosa/medical-02/",
    "plugins": [
    ]
  },
  {
    "title": "Education 02",
    "is_pro": true,
    "pro_url": "https://bosathemes.com/bosa-pro/#pricing",
    "type": "elementor",
    "author": "Bosa Themes",
    "keywords": ["education", "multipurpose"],
    "categories": ["others"],
    "template_url": {
    },
    "screenshot_url": "https://gitlab.com/btdevs/bt-toolset-demos/-/raw/main/bosa/screenshots/bosa-education-02-250-300.jpg",
    "demo_url": "https://demo.bosathemes.com/bosa/education-02/",
    "plugins": [
    ]
  },
  {
    "title": "Digital Marketing",
    "is_pro": true,
    "pro_url": "https://bosathemes.com/bosa-pro/#pricing",
    "type": "elementor",
    "author": "Bosa Themes",
    "keywords": ["business", "Digital", "Marketing", "multipurpose"],
    "categories": ["business"],
    "template_url": {
      "content": "https://gitlab.com/btdevs/bt-toolset-demos/-/raw/main/bosa/demos/digital-marketing/content.json",
      "options": "https://gitlab.com/btdevs/bt-toolset-demos/-/raw/main/bosa/demos/digital-marketing/options.json",
      "widgets": "https://gitlab.com/btdevs/bt-toolset-demos/-/raw/main/bosa/demos/digital-marketing/widgets.json"
    },
    "screenshot_url": "https://gitlab.com/btdevs/bt-toolset-demos/-/raw/main/bosa/screenshots/bosa-digital-marketing-250-300.jpg",
    "demo_url": "https://demo.bosathemes.com/bosa/digital-marketing/",
    "plugins": [
    ]
  },
  {
    "title": "Restaurant Cafe",
    "is_pro": true,
    "pro_url": "https://bosathemes.com/bosa-pro/#pricing",
    "type": "elementor",
    "author": "Bosa Themes",
    "keywords": ["business", "restaurant", "cafe", "multipurpose"],
    "categories": ["business"],
    "template_url": {
      "content": "https://gitlab.com/btdevs/bt-toolset-demos/-/raw/main/bosa/demos/restaurant-cafe/content.json",
      "options": "https://gitlab.com/btdevs/bt-toolset-demos/-/raw/main/bosa/demos/restaurant-cafe/options.json",
      "widgets": "https://gitlab.com/btdevs/bt-toolset-demos/-/raw/main/bosa/demos/restaurant-cafe/widgets.json"
    },
    "screenshot_url": "https://gitlab.com/btdevs/bt-toolset-demos/-/raw/main/bosa/screenshots/bosa-restaurant-cafe-250-300.jpg",
    "demo_url": "https://demo.bosathemes.com/bosa/restaurant-cafe/",
    "plugins": [
    ]
  },
  {
    "title": "Real Estate",
    "is_pro": true,
    "pro_url": "https://bosathemes.com/bosa-pro/#pricing",
    "type": "elementor",
    "author": "Bosa Themes",
    "keywords": ["business", "real", "estate", "multipurpose"],
    "categories": ["business"],
    "template_url": {
      "content": "https://gitlab.com/btdevs/bt-toolset-demos/-/raw/main/bosa/demos/real-estate/content.json",
      "options": "https://gitlab.com/btdevs/bt-toolset-demos/-/raw/main/bosa/demos/real-estate/options.json",
      "widgets": "https://gitlab.com/btdevs/bt-toolset-demos/-/raw/main/bosa/demos/real-estate/widgets.json"
    },
    "screenshot_url": "https://gitlab.com/btdevs/bt-toolset-demos/-/raw/main/bosa/screenshots/bosa-real-estate-250-300.jpg",
    "demo_url": "https://demo.bosathemes.com/bosa/real-estate/",
    "plugins": [
    ]
  },
  {
    "title": "Rental Car",
    "is_pro": true,
    "pro_url": "https://bosathemes.com/bosa-pro/#pricing",
    "type": "elementor",
    "author": "Bosa Themes",
    "keywords": ["business", "rental", "car", "multipurpose"],
    "categories": ["business"],
    "template_url": {
      "content": "https://gitlab.com/btdevs/bt-toolset-demos/-/raw/main/bosa/demos/rental-car/content.json",
      "options": "https://gitlab.com/btdevs/bt-toolset-demos/-/raw/main/bosa/demos/rental-car/options.json",
      "widgets": "https://gitlab.com/btdevs/bt-toolset-demos/-/raw/main/bosa/demos/rental-car/widgets.json"
    },
    "screenshot_url": "https://gitlab.com/btdevs/bt-toolset-demos/-/raw/main/bosa/screenshots/bosa-rental-car-250-300.jpg",
    "demo_url": "https://demo.bosathemes.com/bosa/rental-car/",
    "plugins": [
    ]
  },
  {
    "title": "Event Conference",
    "is_pro": true,
    "pro_url": "https://bosathemes.com/bosa-pro/#pricing",
    "type": "elementor",
    "author": "Bosa Themes",
    "keywords": ["business", "conference", "event", "multipurpose"],
    "categories": ["business"],
    "template_url": {
      "content": "https://gitlab.com/btdevs/bt-toolset-demos/-/raw/main/bosa/demos/event-conference/content.json",
      "options": "https://gitlab.com/btdevs/bt-toolset-demos/-/raw/main/bosa/demos/event-conference/options.json",
      "widgets": "https://gitlab.com/btdevs/bt-toolset-demos/-/raw/main/bosa/demos/event-conference/widgets.json"
    },
    "screenshot_url": "https://gitlab.com/btdevs/bt-toolset-demos/-/raw/main/bosa/screenshots/bosa-event-conference-250-300.jpg",
    "demo_url": "https://demo.bosathemes.com/bosa/event-conference/",
    "plugins": [
    ]
  },
  {
    "title": "Business Services",
    "is_pro": true,
    "pro_url": "https://bosathemes.com/bosa-pro/#pricing",
    "type": "elementor",
    "author": "Bosa Themes",
    "keywords": ["business", "services", "multipurpose"],
    "categories": ["business"],
    "template_url": {
      "content": "https://gitlab.com/btdevs/bt-toolset-demos/-/raw/main/bosa/demos/business-services/content.json",
      "options": "https://gitlab.com/btdevs/bt-toolset-demos/-/raw/main/bosa/demos/business-services/options.json",
      "widgets": "https://gitlab.com/btdevs/bt-toolset-demos/-/raw/main/bosa/demos/business-services/widgets.json"
    },
    "screenshot_url": "https://gitlab.com/btdevs/bt-toolset-demos/-/raw/main/bosa/screenshots/bosa-business-services-250-300.jpg",
    "demo_url": "https://demo.bosathemes.com/bosa/business-services/",
    "plugins": [
    ]
  },
  {
    "title": "Online Education",
    "is_pro": true,
    "pro_url": "https://bosathemes.com/bosa-pro/#pricing",
    "type": "elementor",
    "author": "Bosa Themes",
    "keywords": ["business", "education", "multipurpose", "e-learning"],
    "categories": ["business"],
    "template_url": {
      "content": "https://gitlab.com/btdevs/bt-toolset-demos/-/raw/main/bosa/demos/online-education/content.json",
      "options": "https://gitlab.com/btdevs/bt-toolset-demos/-/raw/main/bosa/demos/online-education/options.json",
      "widgets": "https://gitlab.com/btdevs/bt-toolset-demos/-/raw/main/bosa/demos/online-education/widgets.json"
    },
    "screenshot_url": "https://gitlab.com/btdevs/bt-toolset-demos/-/raw/main/bosa/screenshots/bosa-online-education-250-300.jpg",
    "demo_url": "https://demo.bosathemes.com/bosa/online-education/",
    "plugins": [
    ]
  },
  {
    "title": "Agency Dark",
    "is_pro": true,
    "pro_url": "https://bosathemes.com/bosa-pro/#pricing",
    "type": "elementor",
    "author": "Bosa Themes",
    "keywords": ["business", "agency", "multipurpose", "dark"],
    "categories": ["business"],
    "template_url": {
      "content": "https://gitlab.com/btdevs/bt-toolset-demos/-/raw/main/bosa/demos/agency-dark/content.json",
      "options": "https://gitlab.com/btdevs/bt-toolset-demos/-/raw/main/bosa/demos/agency-dark/options.json",
      "widgets": "https://gitlab.com/btdevs/bt-toolset-demos/-/raw/main/bosa/demos/agency-dark/widgets.json"
    },
    "screenshot_url": "https://gitlab.com/btdevs/bt-toolset-demos/-/raw/main/bosa/screenshots/bosa-agency-dark-250-300.jpg",
    "demo_url": "https://demo.bosathemes.com/bosa/agency-dark/",
    "plugins": [
    ]
  },
  {
    "title": "Construction Industrial",
    "is_pro": true,
    "pro_url": "https://bosathemes.com/bosa-pro/#pricing",
    "type": "elementor",
    "author": "Bosa Themes",
    "keywords": ["business", "industrial", "multipurpose", "construction"],
    "categories": ["business"],
    "template_url": {
      "content": "https://gitlab.com/btdevs/bt-toolset-demos/-/raw/main/bosa/demos/construction-industrial/content.json",
      "options": "https://gitlab.com/btdevs/bt-toolset-demos/-/raw/main/bosa/demos/construction-industrial/options.json",
      "widgets": "https://gitlab.com/btdevs/bt-toolset-demos/-/raw/main/bosa/demos/construction-industrial/widgets.json"
    },
    "screenshot_url": "https://gitlab.com/btdevs/bt-toolset-demos/-/raw/main/bosa/screenshots/bosa-construction-industrial-250-300.jpg",
    "demo_url": "https://demo.bosathemes.com/bosa/construction-industrial/",
    "plugins": [
    ]
  },
  {
    "title": "Biz",
    "is_pro": true,
    "pro_url": "https://bosathemes.com/bosa-pro/#pricing",
    "type": "elementor",
    "author": "Bosa Themes",
    "keywords": ["business", "multipurpose", "biz"],
    "categories": ["business"],
    "template_url": {
      "content": "https://gitlab.com/btdevs/bt-toolset-demos/-/raw/main/bosa/demos/biz/content.json",
      "options": "https://gitlab.com/btdevs/bt-toolset-demos/-/raw/main/bosa/demos/biz/options.json",
      "widgets": "https://gitlab.com/btdevs/bt-toolset-demos/-/raw/main/bosa/demos/biz/widgets.json"
    },
    "screenshot_url": "https://gitlab.com/btdevs/bt-toolset-demos/-/raw/main/bosa/screenshots/bosa-biz-250-300.jpg",
    "demo_url": "https://demo.bosathemes.com/bosa/biz/",
    "plugins": [
    ]
  },
  {
    "title": "Decor Shop",
    "is_pro": true,
    "pro_url": "https://bosathemes.com/bosa-pro/#pricing",
    "type": "elementor",
    "author": "Bosa Themes",
    "keywords": ["decor", "ecommerce", "multipurpose", "shop"],
    "categories": ["ecommerce"],
    "template_url": {
      "content": "https://gitlab.com/btdevs/bt-toolset-demos/-/raw/main/bosa/demos/decor-shop/content.json",
      "options": "https://gitlab.com/btdevs/bt-toolset-demos/-/raw/main/bosa/demos/decor-shop/options.json",
      "widgets": "https://gitlab.com/btdevs/bt-toolset-demos/-/raw/main/bosa/demos/decor-shop/widgets.json"
    },
    "screenshot_url": "https://gitlab.com/btdevs/bt-toolset-demos/-/raw/main/bosa/screenshots/bosa-decor-shop-250-300.jpg",
    "demo_url": "https://demo.bosathemes.com/bosa/decor-shop/",
    "plugins": [
    ]
  },
  {
    "title": "Digital Agency",
    "is_pro": true,
    "pro_url": "https://bosathemes.com/bosa-pro/#pricing",
    "type": "elementor",
    "author": "Bosa Themes",
    "keywords": ["digital", "business", "multipurpose", "agency"],
    "categories": ["business"],
    "template_url": {
      "content": "https://gitlab.com/btdevs/bt-toolset-demos/-/raw/main/bosa/demos/digital-agency/content.json",
      "options": "https://gitlab.com/btdevs/bt-toolset-demos/-/raw/main/bosa/demos/digital-agency/options.json",
      "widgets": "https://gitlab.com/btdevs/bt-toolset-demos/-/raw/main/bosa/demos/digital-agency/widgets.json"
    },
    "screenshot_url": "https://gitlab.com/btdevs/bt-toolset-demos/-/raw/main/bosa/screenshots/bosa-digital-agency-250-300.jpg",
    "demo_url": "https://demo.bosathemes.com/bosa/digital-agency/",
    "plugins": [
    ]
  },
  {
    "title": "Education Hub",
    "is_pro": true,
    "pro_url": "https://bosathemes.com/bosa-pro/#pricing",
    "type": "elementor",
    "author": "Bosa Themes",
    "keywords": ["education", "business", "multipurpose", "hub", "learning"],
    "categories": ["business"],
    "template_url": {
      "content": "https://gitlab.com/btdevs/bt-toolset-demos/-/raw/main/bosa/demos/education-hub/content.json",
      "options": "https://gitlab.com/btdevs/bt-toolset-demos/-/raw/main/bosa/demos/education-hub/options.json",
      "widgets": "https://gitlab.com/btdevs/bt-toolset-demos/-/raw/main/bosa/demos/education-hub/widgets.json"
    },
    "screenshot_url": "https://gitlab.com/btdevs/bt-toolset-demos/-/raw/main/bosa/screenshots/bosa-education-hub-250-300.jpg",
    "demo_url": "https://demo.bosathemes.com/bosa/education-hub/",
    "plugins": [
    ]
  },
  {
    "title": "Travel Tour",
    "is_pro": true,
    "pro_url": "https://bosathemes.com/bosa-pro/#pricing",
    "type": "elementor",
    "author": "Bosa Themes",
    "keywords": ["travel", "business", "multipurpose", "tour", "trip"],
    "categories": ["business"],
    "template_url": {
      "content": "https://gitlab.com/btdevs/bt-toolset-demos/-/raw/main/bosa/demos/travel-tour/content.json",
      "options": "https://gitlab.com/btdevs/bt-toolset-demos/-/raw/main/bosa/demos/travel-tour/options.json",
      "widgets": "https://gitlab.com/btdevs/bt-toolset-demos/-/raw/main/bosa/demos/travel-tour/widgets.json"
    },
    "screenshot_url": "https://gitlab.com/btdevs/bt-toolset-demos/-/raw/main/bosa/screenshots/bosa-travel-tour-250-300.jpg",
    "demo_url": "https://demo.bosathemes.com/bosa/travel-tour/",
    "plugins": [
    ]
  },
  {
    "title": "Marketplace",
    "is_pro": true,
    "pro_url": "https://bosathemes.com/bosa-pro/#pricing",
    "type": "elementor",
    "author": "Bosa Themes",
    "keywords": ["market", "ecommerce", "multipurpose", "mart"],
    "categories": ["ecommerce"],
    "template_url": {
      "content": "https://gitlab.com/btdevs/bt-toolset-demos/-/raw/main/bosa/demos/marketplace/content.json",
      "options": "https://gitlab.com/btdevs/bt-toolset-demos/-/raw/main/bosa/demos/marketplace/options.json",
      "widgets": "https://gitlab.com/btdevs/bt-toolset-demos/-/raw/main/bosa/demos/marketplace/widgets.json"
    },
    "screenshot_url": "https://gitlab.com/btdevs/bt-toolset-demos/-/raw/main/bosa/screenshots/bosa-marketplace-250-300.jpg",
    "demo_url": "https://demo.bosathemes.com/bosa/marketplace/",
    "plugins": [
    ]
  },
  {
    "title": "EV Charging Station",
    "is_pro": true,
    "pro_url": "https://bosathemes.com/bosa-pro/#pricing",
    "type": "elementor",
    "author": "Bosa Themes",
    "keywords": ["ev", "business", "multipurpose", "charging", "station"],
    "categories": ["business"],
    "template_url": {
      "content": "https://gitlab.com/btdevs/bt-toolset-demos/-/raw/main/bosa/demos/ev-charging-station/content.json",
      "options": "https://gitlab.com/btdevs/bt-toolset-demos/-/raw/main/bosa/demos/ev-charging-station/options.json",
      "widgets": "https://gitlab.com/btdevs/bt-toolset-demos/-/raw/main/bosa/demos/ev-charging-station/widgets.json"
    },
    "screenshot_url": "https://gitlab.com/btdevs/bt-toolset-demos/-/raw/main/bosa/screenshots/bosa-ev-charging-station-250-300.jpg",
    "demo_url": "https://demo.bosathemes.com/bosa/ev-charging-station/",
    "plugins": [
    ]
  },
  {
    "title": "Medical Health",
    "is_pro": true,
    "pro_url": "https://bosathemes.com/bosa-pro/#pricing",
    "type": "elementor",
    "author": "Bosa Themes",
    "keywords": ["medical", "business", "multipurpose", "health"],
    "categories": ["business"],
    "template_url": {
      "content": "https://gitlab.com/btdevs/bt-toolset-demos/-/raw/main/bosa/demos/medical-health/content.json",
      "options": "https://gitlab.com/btdevs/bt-toolset-demos/-/raw/main/bosa/demos/medical-health/options.json",
      "widgets": "https://gitlab.com/btdevs/bt-toolset-demos/-/raw/main/bosa/demos/medical-health/widgets.json"
    },
    "screenshot_url": "https://gitlab.com/btdevs/bt-toolset-demos/-/raw/main/bosa/screenshots/bosa-medical-health-250-300.jpg",
    "demo_url": "https://demo.bosathemes.com/bosa/medical-health/",
    "plugins": [
    ]
  },
  {
    "title": "Shopfront",
    "is_pro": true,
    "pro_url": "https://bosathemes.com/bosa-pro/#pricing",
    "type": "elementor",
    "author": "Bosa Themes",
    "keywords": ["shop", "ecommerce", "multipurpose", "front"],
    "categories": ["ecommerce"],
    "template_url": {
      "content": "https://gitlab.com/btdevs/bt-toolset-demos/-/raw/main/bosa/demos/shopfront/content.json",
      "options": "https://gitlab.com/btdevs/bt-toolset-demos/-/raw/main/bosa/demos/shopfront/options.json",
      "widgets": "https://gitlab.com/btdevs/bt-toolset-demos/-/raw/main/bosa/demos/shopfront/widgets.json"
    },
    "screenshot_url": "https://gitlab.com/btdevs/bt-toolset-demos/-/raw/main/bosa/screenshots/bosa-shopfront-250-300.jpg",
    "demo_url": "https://demo.bosathemes.com/bosa/shopfront/",
    "plugins": [
    ]
  },
 {
    "title": "Charity Fundraiser",
    "is_pro": true,
    "pro_url": "https://bosathemes.com/bosa-pro/#pricing",
    "type": "elementor",
    "author": "Bosa Themes",
    "keywords": ["shop", "business", "multipurpose", "charity", "fund"],
    "categories": ["business"],
    "template_url": {
      "content": "https://gitlab.com/btdevs/bt-toolset-demos/-/raw/main/bosa/demos/charity-fundraiser/content.json",
      "options": "https://gitlab.com/btdevs/bt-toolset-demos/-/raw/main/bosa/demos/charity-fundraiser/options.json",
      "widgets": "https://gitlab.com/btdevs/bt-toolset-demos/-/raw/main/bosa/demos/charity-fundraiser/widgets.json"
    },
    "screenshot_url": "https://gitlab.com/btdevs/bt-toolset-demos/-/raw/main/bosa/screenshots/bosa-charity-fundraiser-250-300.jpg",
    "demo_url": "https://demo.bosathemes.com/bosa/charity-fundraiser/",
    "plugins": [
    ]
  },
  {
    "title": "Shop Dark",
    "is_pro": true,
    "pro_url": "https://bosathemes.com/bosa-pro/#pricing",
    "type": "elementor",
    "author": "Bosa Themes",
    "keywords": ["shop", "ecommerce", "multipurpose", "dark"],
    "categories": ["ecommerce"],
    "template_url": {
      "content": "https://gitlab.com/btdevs/bt-toolset-demos/-/raw/main/bosa/demos/shop-dark/content.json",
      "options": "https://gitlab.com/btdevs/bt-toolset-demos/-/raw/main/bosa/demos/shop-dark/options.json",
      "widgets": "https://gitlab.com/btdevs/bt-toolset-demos/-/raw/main/bosa/demos/shop-dark/widgets.json"
    },
    "screenshot_url": "https://gitlab.com/btdevs/bt-toolset-demos/-/raw/main/bosa/screenshots/bosa-shop-dark-250-300.jpg",
    "demo_url": "https://demo.bosathemes.com/bosa/shop-dark/",
    "plugins": [
    ]
  },
  {
    "title": "Beauty Shop",
    "is_pro": true,
    "pro_url": "https://bosathemes.com/bosa-pro/#pricing",
    "type": "elementor",
    "author": "Bosa Themes",
    "keywords": ["shop", "ecommerce", "multipurpose", "beauty"],
    "categories": ["ecommerce"],
    "template_url": {
      "content": "https://gitlab.com/btdevs/bt-toolset-demos/-/raw/main/bosa/demos/beauty-shop/content.json",
      "options": "https://gitlab.com/btdevs/bt-toolset-demos/-/raw/main/bosa/demos/beauty-shop/options.json",
      "widgets": "https://gitlab.com/btdevs/bt-toolset-demos/-/raw/main/bosa/demos/beauty-shop/widgets.json"
    },
    "screenshot_url": "https://gitlab.com/btdevs/bt-toolset-demos/-/raw/main/bosa/screenshots/bosa-beauty-shop-250-300.jpg",
    "demo_url": "https://demo.bosathemes.com/bosa/beauty-shop/",
    "plugins": [
    ]
  },
  {
    "title": "Travel Shop",
    "is_pro": true,
    "pro_url": "https://bosathemes.com/bosa-pro/#pricing",
    "type": "elementor",
    "author": "Bosa Themes",
    "keywords": ["shop", "ecommerce", "multipurpose", "travel"],
    "categories": ["ecommerce"],
    "template_url": {
      "content": "https://gitlab.com/btdevs/bt-toolset-demos/-/raw/main/bosa/demos/travel-shop/content.json",
      "options": "https://gitlab.com/btdevs/bt-toolset-demos/-/raw/main/bosa/demos/travel-shop/options.json",
      "widgets": "https://gitlab.com/btdevs/bt-toolset-demos/-/raw/main/bosa/demos/travel-shop/widgets.json"
    },
    "screenshot_url": "https://gitlab.com/btdevs/bt-toolset-demos/-/raw/main/bosa/screenshots/bosa-travel-shop-250-300.jpg",
    "demo_url": "https://demo.bosathemes.com/bosa/travel-shop/",
    "plugins": [
    ]
  },
  {
    "title": "Construction Shop",
    "is_pro": true,
    "pro_url": "https://bosathemes.com/bosa-pro/#pricing",
    "type": "elementor",
    "author": "Bosa Themes",
    "keywords": ["shop", "ecommerce", "multipurpose", "construction", "building"],
    "categories": ["ecommerce"],
    "template_url": {
      "content": "https://gitlab.com/btdevs/bt-toolset-demos/-/raw/main/bosa/demos/shop-store/content.json",
      "options": "https://gitlab.com/btdevs/bt-toolset-demos/-/raw/main/bosa/demos/shop-store/options.json",
      "widgets": "https://gitlab.com/btdevs/bt-toolset-demos/-/raw/main/bosa/demos/shop-store/widgets.json"
    },
    "screenshot_url": "https://gitlab.com/btdevs/bt-toolset-demos/-/raw/main/bosa/screenshots/bosa-construction-shop-250-300.jpg",
    "demo_url": "https://demo.bosathemes.com/bosa/construction-shop/",
    "plugins": [
    ]
  },
  {
    "title": "Shop Store",
    "is_pro": true,
    "pro_url": "https://bosathemes.com/bosa-pro/#pricing",
    "type": "elementor",
    "author": "Bosa Themes",
    "keywords": ["shop", "ecommerce", "multipurpose", "store", "shopstore"],
    "categories": ["ecommerce"],
    "template_url": {
      "content": "https://gitlab.com/btdevs/bt-toolset-demos/-/raw/main/bosa/demos/shop-store/content.json",
      "options": "https://gitlab.com/btdevs/bt-toolset-demos/-/raw/main/bosa/demos/shop-store/options.json",
      "widgets": "https://gitlab.com/btdevs/bt-toolset-demos/-/raw/main/bosa/demos/shop-store/widgets.json"
    },
    "screenshot_url": "https://gitlab.com/btdevs/bt-toolset-demos/-/raw/main/bosa/screenshots/bosa-shop-store-250-300.jpg",
    "demo_url": "https://demo.bosathemes.com/bosa/shop-store/",
    "plugins": [
    ]
  },
  {
    "title": "Ecommerce Shop",
    "is_pro": true,
    "pro_url": "https://bosathemes.com/bosa-pro/#pricing",
    "type": "elementor",
    "author": "Bosa Themes",
    "keywords": ["ecommerce", "shop", "ecommerceshop", "multipurpose"],
    "categories": ["ecommerce"],
    "template_url": {
      "content": "https://gitlab.com/btdevs/bt-toolset-demos/-/raw/main/bosa/demos/ecommerce-shop/content.json",
      "options": "https://gitlab.com/btdevs/bt-toolset-demos/-/raw/main/bosa/demos/ecommerce-shop/options.json",
      "widgets": "https://gitlab.com/btdevs/bt-toolset-demos/-/raw/main/bosa/demos/ecommerce-shop/widgets.json"
    },
    "screenshot_url": "https://gitlab.com/btdevs/bt-toolset-demos/-/raw/main/bosa/screenshots/bosa-ecommerce-shop-250-300.jpg",
    "demo_url": "https://demo.bosathemes.com/bosa/ecommerce-shop/",
    "plugins": [
    ]
  },
  {
    "title": "Storefront",
    "is_pro": true,
    "pro_url": "https://bosathemes.com/bosa-pro/#pricing",
    "type": "elementor",
    "author": "Bosa Themes",
    "keywords": ["ecommerce", "store", "storefront", "multipurpose"],
    "categories": ["ecommerce"],
    "template_url": {
      "content": "https://gitlab.com/btdevs/bt-toolset-demos/-/raw/main/bosa/demos/storefront/content.json",
      "options": "https://gitlab.com/btdevs/bt-toolset-demos/-/raw/main/bosa/demos/storefront/options.json",
      "widgets": "https://gitlab.com/btdevs/bt-toolset-demos/-/raw/main/bosa/demos/storefront/widgets.json"
    },
    "screenshot_url": "https://gitlab.com/btdevs/bt-toolset-demos/-/raw/main/bosa/screenshots/bosa-storefront-250-300.jpg",
    "demo_url": "https://demo.bosathemes.com/bosa/storefront/",
    "plugins": [
      {
        "name": "Bosa Elementor for WooCommerce",
        "slug": "bosa-elementor-for-woocommerce"
      }
    ]
  },
  {
    "title": "Online Shop",
    "is_pro": true,
    "pro_url": "https://bosathemes.com/bosa-pro/#pricing",
    "type": "elementor",
    "author": "Bosa Themes",
    "keywords": ["ecommerce", "online", "shop", "multipurpose"],
    "categories": ["ecommerce"],
    "template_url": {
      "content": "https://gitlab.com/btdevs/bt-toolset-demos/-/raw/main/bosa/demos/online-shop/content.json",
      "options": "https://gitlab.com/btdevs/bt-toolset-demos/-/raw/main/bosa/demos/online-shop/options.json",
      "widgets": "https://gitlab.com/btdevs/bt-toolset-demos/-/raw/main/bosa/demos/online-shop/widgets.json"
    },
    "screenshot_url": "https://gitlab.com/btdevs/bt-toolset-demos/-/raw/main/bosa/screenshots/bosa-online-shop-250-300.jpg",
    "demo_url": "https://demo.bosathemes.com/bosa/online-shop/",
    "plugins": [
      {
        "name": "Contact Form 7",
        "slug": "contact-form-7",
        "main_file": "wp-contact-form-7.php"
      }
    ]
  },
  {
    "title": "Shopper",
    "is_pro": true,
    "pro_url": "https://bosathemes.com/bosa-pro/#pricing",
    "type": "elementor",
    "author": "Bosa Themes",
    "keywords": ["ecommerce", "shopper", "multipurpose"],
    "categories": ["ecommerce"],
    "template_url": {
      "content": "https://gitlab.com/btdevs/bt-toolset-demos/-/raw/main/bosa/demos/shopper/content.json",
      "options": "https://gitlab.com/btdevs/bt-toolset-demos/-/raw/main/bosa/demos/shopper/options.json",
      "widgets": "https://gitlab.com/btdevs/bt-toolset-demos/-/raw/main/bosa/demos/shopper/widgets.json"
    },
    "screenshot_url": "https://gitlab.com/btdevs/bt-toolset-demos/-/raw/main/bosa/screenshots/bosa-shopper-250-300.jpg",
    "demo_url": "https://demo.bosathemes.com/bosa/shopper/",
    "plugins": [
      {
        "name": "Contact Form 7",
        "slug": "contact-form-7",
        "main_file": "wp-contact-form-7.php"
      }
    ]
  },
  {
    "title": "Shop",
    "is_pro": true,
    "pro_url": "https://bosathemes.com/bosa-pro/#pricing",
    "type": "elementor",
    "author": "Bosa Themes",
    "keywords": ["ecommerce", "shop", "multipurpose"],
    "categories": ["ecommerce"],
    "template_url": {
      "content": "https://gitlab.com/btdevs/bt-toolset-demos/-/raw/main/bosa/demos/shop/content.json",
      "options": "https://gitlab.com/btdevs/bt-toolset-demos/-/raw/main/bosa/demos/shop/options.json",
      "widgets": "https://gitlab.com/btdevs/bt-toolset-demos/-/raw/main/bosa/demos/shop/widgets.json"
    },
    "screenshot_url": "https://gitlab.com/btdevs/bt-toolset-demos/-/raw/main/bosa/screenshots/bosa-shop-250-300.jpg",
    "demo_url": "https://demo.bosathemes.com/bosa/shop/",
    "plugins": [
      {
        "name": "Contact Form 7",
        "slug": "contact-form-7",
        "main_file": "wp-contact-form-7.php"
      }
    ]
  },
  {
    "title": "Ecommerce",
    "is_pro": true,
    "pro_url": "https://bosathemes.com/bosa-pro/#pricing",
    "type": "elementor",
    "author": "Bosa Themes",
    "keywords": ["ecommerce", "multipurpose"],
    "categories": ["ecommerce"],
    "template_url": {
      "content": "https://gitlab.com/btdevs/bt-toolset-demos/-/raw/main/bosa/demos/ecommerce/content.json",
      "options": "https://gitlab.com/btdevs/bt-toolset-demos/-/raw/main/bosa/demos/ecommerce/options.json",
      "widgets": "https://gitlab.com/btdevs/bt-toolset-demos/-/raw/main/bosa/demos/ecommerce/widgets.json"
    },
    "screenshot_url": "https://gitlab.com/btdevs/bt-toolset-demos/-/raw/main/bosa/screenshots/bosa-ecommerce-250-300.jpg",
    "demo_url": "https://demo.bosathemes.com/bosa/ecommerce/",
    "plugins": [
      {
        "name": "Contact Form 7",
        "slug": "contact-form-7",
        "main_file": "wp-contact-form-7.php"
      }
    ]
  },
  {
    "title": "Store",
    "is_pro": true,
    "pro_url": "https://bosathemes.com/bosa-pro/#pricing",
    "type": "elementor",
    "author": "Bosa Themes",
    "keywords": ["ecommerce", "store", "multipurpose"],
    "categories": ["ecommerce"],
    "template_url": {
      "content": "https://gitlab.com/btdevs/bt-toolset-demos/-/raw/main/bosa/demos/store/content.json",
      "options": "https://gitlab.com/btdevs/bt-toolset-demos/-/raw/main/bosa/demos/store/options.json",
      "widgets": "https://gitlab.com/btdevs/bt-toolset-demos/-/raw/main/bosa/demos/store/widgets.json"
    },
    "screenshot_url": "https://gitlab.com/btdevs/bt-toolset-demos/-/raw/main/bosa/screenshots/bosa-store-250-300.jpg",
    "demo_url": "https://demo.bosathemes.com/bosa/store/",
    "plugins": [
      {
        "name": "Contact Form 7",
        "slug": "contact-form-7",
        "main_file": "wp-contact-form-7.php"
      }
    ]
  },
  {
    "title": "Travelers Blog",
    "is_pro": true,
    "pro_url": "https://bosathemes.com/bosa-pro/#pricing",
    "type": "gutenberg",
    "author": "Bosa Themes",
    "keywords": ["travelers", "blog", "travel", "multipurpose"],
    "categories": ["blog"],
    "template_url": {
      "content": "https://gitlab.com/btdevs/bt-toolset-demos/-/raw/main/bosa/demos/blog/travelers-blog/content.json",
      "options": "https://gitlab.com/btdevs/bt-toolset-demos/-/raw/main/bosa/demos/blog/travelers-blog/options.json",
      "widgets": "https://gitlab.com/btdevs/bt-toolset-demos/-/raw/main/bosa/demos/blog/travelers-blog/widgets.json"
    },
    "screenshot_url": "https://gitlab.com/btdevs/bt-toolset-demos/-/raw/main/bosa/screenshots/bosa-travelers-blog-250-300.jpg",
    "demo_url": "https://demo.bosathemes.com/bosa/travelers-blog/",
    "plugins": [
      {
        "name": "Contact Form 7",
        "slug": "contact-form-7",
        "main_file": "wp-contact-form-7.php"
      },
      {
        "name": "WooCommerce",
        "slug": "woocommerce"
      }
    ]
  },
  {
    "title": "Music 02",
    "is_pro": true,
    "pro_url": "https://bosathemes.com/bosa-pro/#pricing",
    "type": "elementor",
    "author": "Bosa Themes",
    "keywords": ["music", "music02", "multipurpose"],
    "categories": ["others"],
    "template_url": {
      "content": "https://gitlab.com/btdevs/bt-toolset-demos/-/raw/main/bosa/demos/music/music02/content.json",
      "options": "https://gitlab.com/btdevs/bt-toolset-demos/-/raw/main/bosa/demos/music/music02/options.json",
      "widgets": "https://gitlab.com/btdevs/bt-toolset-demos/-/raw/main/bosa/demos/music/music02/widgets.json"
    },
    "screenshot_url": "https://gitlab.com/btdevs/bt-toolset-demos/-/raw/main/bosa/screenshots/bosa-music02-250-300.jpg",
    "demo_url": "https://demo.bosathemes.com/bosa/music-02/",
    "plugins": [
      {
        "name": "Contact Form 7",
        "slug": "contact-form-7",
        "main_file": "wp-contact-form-7.php"
      },
      {
        "name": "Sina Extension for Elementor",
        "slug": "sina-extension-for-elementor"
      },
      {
        "name": "WooCommerce",
        "slug": "woocommerce"
      }
    ]
  },
  {
    "title": "Blog Dark",
    "is_pro": true,
    "pro_url": "https://bosathemes.com/bosa-pro/#pricing",
    "type": "gutenberg",
    "author": "Bosa Themes",
    "keywords": ["blog", "dark", "multipurpose"],
    "categories": ["blog"],
    "template_url": {
      "content": "https://gitlab.com/btdevs/bt-toolset-demos/-/raw/main/bosa/demos/blog/blog-dark/content.json",
      "options": "https://gitlab.com/btdevs/bt-toolset-demos/-/raw/main/bosa/demos/blog/blog-dark/options.json",
      "widgets": "https://gitlab.com/btdevs/bt-toolset-demos/-/raw/main/bosa/demos/blog/blog-dark/widgets.json"
    },
    "screenshot_url": "https://gitlab.com/btdevs/bt-toolset-demos/-/raw/main/bosa/screenshots/bosa-blog-dark-250-300.jpg",
    "demo_url": "https://demo.bosathemes.com/bosa/blog-dark/",
    "plugins": [
      {
        "name": "Contact Form 7",
        "slug": "contact-form-7",
        "main_file": "wp-contact-form-7.php"
      },
      {
        "name": "WooCommerce",
        "slug": "woocommerce"
      }
    ]
  },
  {
    "title": "Charity 02",
    "is_pro": true,
    "pro_url": "https://bosathemes.com/bosa-pro/#pricing",
    "type": "elementor",
    "author": "Bosa Themes",
    "keywords": ["charity", "charity02", "multipurpose"],
    "categories": ["non-profit"],
    "template_url": {
      "content": "https://gitlab.com/btdevs/bt-toolset-demos/-/raw/main/bosa/demos/charity/charity02/content.json",
      "options": "https://gitlab.com/btdevs/bt-toolset-demos/-/raw/main/bosa/demos/charity/charity02/options.json",
      "widgets": "https://gitlab.com/btdevs/bt-toolset-demos/-/raw/main/bosa/demos/charity/charity02/widgets.json"
    },
    "screenshot_url": "https://gitlab.com/btdevs/bt-toolset-demos/-/raw/main/bosa/screenshots/bosa-charity-02-250-300.jpg",
    "demo_url": "https://demo.bosathemes.com/bosa/charity-02/",
    "plugins": [
      {
        "name": "Contact Form 7",
        "slug": "contact-form-7",
        "main_file": "wp-contact-form-7.php"
      },
      {
        "name": "Sina Extension for Elementor",
        "slug": "sina-extension-for-elementor"
      },
      {
        "name": "WooCommerce",
        "slug": "woocommerce"
      }
    ]
  },
  {
    "title": "Consulting",
    "is_pro": true,
    "pro_url": "https://bosathemes.com/bosa-pro/#pricing",
    "type": "elementor",
    "author": "Bosa Themes",
    "keywords": ["consulting", "multipurpose"],
    "categories": ["business"],
    "template_url": {
      "content": "https://gitlab.com/btdevs/bt-toolset-demos/-/raw/main/bosa/demos/consulting/content.json",
      "options": "https://gitlab.com/btdevs/bt-toolset-demos/-/raw/main/bosa/demos/consulting/options.json",
      "widgets": "https://gitlab.com/btdevs/bt-toolset-demos/-/raw/main/bosa/demos/consulting/widgets.json"
    },
    "screenshot_url": "https://gitlab.com/btdevs/bt-toolset-demos/-/raw/main/bosa/screenshots/bosa-consulting-250-300.jpg",
    "demo_url": "https://demo.bosathemes.com/bosa/consulting/",
    "plugins": [
      {
        "name": "Contact Form 7",
        "slug": "contact-form-7",
        "main_file": "wp-contact-form-7.php"
      },
      {
        "name": "Sina Extension for Elementor",
        "slug": "sina-extension-for-elementor"
      },
      {
        "name": "WooCommerce",
        "slug": "woocommerce"
      }
    ]
  },
  {
    "title": "Corporate Dark",
    "is_pro": true,
    "pro_url": "https://bosathemes.com/bosa-pro/#pricing",
    "type": "elementor",
    "author": "Bosa Themes",
    "keywords": ["corporate", "dark", "multipurpose"],
    "categories": ["business"],
    "template_url": {
      "content": "https://gitlab.com/btdevs/bt-toolset-demos/-/raw/main/bosa/demos/corporate/corporate-dark/content.json",
      "options": "https://gitlab.com/btdevs/bt-toolset-demos/-/raw/main/bosa/demos/corporate/corporate-dark/options.json",
      "widgets": "https://gitlab.com/btdevs/bt-toolset-demos/-/raw/main/bosa/demos/corporate/corporate-dark/widgets.json"
    },
    "screenshot_url": "https://gitlab.com/btdevs/bt-toolset-demos/-/raw/main/bosa/screenshots/bosa-corporate-dark-250-300.jpg",
    "demo_url": "https://demo.bosathemes.com/bosa/corporate-dark/",
    "plugins": [
      {
        "name": "Contact Form 7",
        "slug": "contact-form-7",
        "main_file": "wp-contact-form-7.php"
      },
      {
        "name": "Sina Extension for Elementor",
        "slug": "sina-extension-for-elementor"
      },
      {
        "name": "WooCommerce",
        "slug": "woocommerce"
      }
    ]
  },
  {
    "title": "Business 04",
    "is_pro": true,
    "pro_url": "https://bosathemes.com/bosa-pro/#pricing",
    "type": "elementor",
    "author": "Bosa Themes",
    "keywords": ["business", "busines04", "multipurpose"],
    "categories": ["business"],
    "template_url": {
      "content": "https://gitlab.com/btdevs/bt-toolset-demos/-/raw/main/bosa/demos/business/business04/content.json",
      "options": "https://gitlab.com/btdevs/bt-toolset-demos/-/raw/main/bosa/demos/business/business04/options.json",
      "widgets": "https://gitlab.com/btdevs/bt-toolset-demos/-/raw/main/bosa/demos/business/business04/widgets.json"
    },
    "screenshot_url": "https://gitlab.com/btdevs/bt-toolset-demos/-/raw/main/bosa/screenshots/bosa-business-04-250-300.jpg",
    "demo_url": "https://demo.bosathemes.com/bosa/business-04/",
    "plugins": [
      {
        "name": "Contact Form 7",
        "slug": "contact-form-7",
        "main_file": "wp-contact-form-7.php"
      },
      {
        "name": "Sina Extension for Elementor",
        "slug": "sina-extension-for-elementor"
      },
      {
        "name": "WooCommerce",
        "slug": "woocommerce"
      }
    ]
  },
  {
    "title": "Blog",
    "is_pro": true,
    "pro_url": "https://bosathemes.com/bosa-pro/#pricing",
    "type": "gutenberg",
    "author": "Bosa Themes",
    "keywords": ["blog", "light", "multipurpose"],
    "categories": ["blog"],
    "template_url": {
      "content": "https://gitlab.com/btdevs/bt-toolset-demos/-/raw/main/bosa/demos/blog/blog/content.json",
      "options": "https://gitlab.com/btdevs/bt-toolset-demos/-/raw/main/bosa/demos/blog/blog/options.json",
      "widgets": "https://gitlab.com/btdevs/bt-toolset-demos/-/raw/main/bosa/demos/blog/blog/widgets.json"
    },
    "screenshot_url": "https://gitlab.com/btdevs/bt-toolset-demos/-/raw/main/bosa/screenshots/bosa-blog-250-300.jpg",
    "demo_url": "https://demo.bosathemes.com/bosa/blog-01/",
    "plugins": [
      {
        "name": "Contact Form 7",
        "slug": "contact-form-7",
        "main_file": "wp-contact-form-7.php"
      },
      {
        "name": "WooCommerce",
        "slug": "woocommerce"
      }
    ]
  },
  {
    "title": "Dental",
    "is_pro": true,
    "pro_url": "https://bosathemes.com/bosa-pro/#pricing",
    "type": "new",
    "author": "Bosa Themes",
    "keywords": ["dental", "multipurpose"],
    "categories": ["business"],
    "template_url": {
      "content": "https://gitlab.com/btdevs/bt-toolset-demos/-/raw/main/bosa/demos/dental/content.json",
      "options": "https://gitlab.com/btdevs/bt-toolset-demos/-/raw/main/bosa/demos/dental/options.json",
      "widgets": "https://gitlab.com/btdevs/bt-toolset-demos/-/raw/main/bosa/demos/dental/widgets.json"
    },
    "screenshot_url": "https://gitlab.com/btdevs/bt-toolset-demos/-/raw/main/bosa/screenshots/bosa-dental-250-300.jpg",
    "demo_url": "https://demo.bosathemes.com/bosa/dental/",
    "plugins": [
      {
        "name": "Contact Form 7",
        "slug": "contact-form-7",
        "main_file": "wp-contact-form-7.php"
      },
      {
        "name": "Sina Extension for Elementor",
        "slug": "sina-extension-for-elementor"
      },
      {
        "name": "WooCommerce",
        "slug": "woocommerce"
      }
    ]
  },
  {
    "title": "Wedding",
    "is_pro": true,
    "pro_url": "https://bosathemes.com/bosa-pro/#pricing",
    "author": "Bosa Themes",
    "keywords": ["wedding", "multipurpose"],
    "categories": ["others"],
    "template_url": {
      "content": "https://gitlab.com/btdevs/bt-toolset-demos/-/raw/main/bosa/demos/wedding/content.json",
      "options": "https://gitlab.com/btdevs/bt-toolset-demos/-/raw/main/bosa/demos/wedding/options.json",
      "widgets": "https://gitlab.com/btdevs/bt-toolset-demos/-/raw/main/bosa/demos/wedding/widgets.json"
    },
    "screenshot_url": "https://gitlab.com/btdevs/bt-toolset-demos/-/raw/main/bosa/screenshots/bosa-wedding-250-300.jpg",
    "demo_url": "https://demo.bosathemes.com/bosa/wedding/",
    "plugins": [
      {
        "name": "Contact Form 7",
        "slug": "contact-form-7",
        "main_file": "wp-contact-form-7.php"
      },
      {
        "name": "Sina Extension for Elementor",
        "slug": "sina-extension-for-elementor"
      },
      {
        "name": "WooCommerce",
        "slug": "woocommerce"
      }
    ]
  },
  {
    "title": "Lawyer",
    "is_pro": true,
    "pro_url": "https://bosathemes.com/bosa-pro/#pricing",
    "type": "elementor",
    "author": "Bosa Themes",
    "keywords": ["lawyer", "multipurpose"],
    "categories": ["business"],
    "template_url": {
      "content": "https://gitlab.com/btdevs/bt-toolset-demos/-/raw/main/bosa/demos/lawyer/content.json",
      "options": "https://gitlab.com/btdevs/bt-toolset-demos/-/raw/main/bosa/demos/lawyer/options.json",
      "widgets": "https://gitlab.com/btdevs/bt-toolset-demos/-/raw/main/bosa/demos/lawyer/widgets.json"
    },
    "screenshot_url": "https://gitlab.com/btdevs/bt-toolset-demos/-/raw/main/bosa/screenshots/bosa-lawyer-250-300.jpg",
    "demo_url": "https://demo.bosathemes.com/bosa/lawyer/",
    "plugins": [
      {
        "name": "Contact Form 7",
        "slug": "contact-form-7",
        "main_file": "wp-contact-form-7.php"
      },
      {
        "name": "Sina Extension for Elementor",
        "slug": "sina-extension-for-elementor"
      },
      {
        "name": "WooCommerce",
        "slug": "woocommerce"
      }
    ]
  },
  {
    "title": "Event",
    "is_pro": true,
    "pro_url": "https://bosathemes.com/bosa-pro/#pricing",
    "type": "elementor",
    "author": "Bosa Themes",
    "keywords": ["event", "multipurpose"],
    "categories": ["business"],
    "template_url": {
      "content": "https://gitlab.com/btdevs/bt-toolset-demos/-/raw/main/bosa/demos/event/content.json",
      "options": "https://gitlab.com/btdevs/bt-toolset-demos/-/raw/main/bosa/demos/event/options.json",
      "widgets": "https://gitlab.com/btdevs/bt-toolset-demos/-/raw/main/bosa/demos/event/widgets.json"
    },
    "screenshot_url": "https://gitlab.com/btdevs/bt-toolset-demos/-/raw/main/bosa/screenshots/bosa-event-250-300.jpg",
    "demo_url": "https://demo.bosathemes.com/bosa/event/",
    "plugins": [
      {
        "name": "Contact Form 7",
        "slug": "contact-form-7",
        "main_file": "wp-contact-form-7.php"
      },
      {
        "name": "Sina Extension for Elementor",
        "slug": "sina-extension-for-elementor"
      },
      {
        "name": "WooCommerce",
        "slug": "woocommerce"
      }
    ]
  },
  {
    "title": "Music",
    "is_pro": true,
    "pro_url": "https://bosathemes.com/bosa-pro/#pricing",
    "type": "elementor",
    "author": "Bosa Themes",
    "keywords": ["music", "multipurpose"],
    "categories": ["others"],
    "template_url": {
      "content": "https://gitlab.com/btdevs/bt-toolset-demos/-/raw/main/bosa/demos/music/music/content.json",
      "options": "https://gitlab.com/btdevs/bt-toolset-demos/-/raw/main/bosa/demos/music/music/options.json",
      "widgets": "https://gitlab.com/btdevs/bt-toolset-demos/-/raw/main/bosa/demos/music/music/widgets.json"
    },
    "screenshot_url": "https://gitlab.com/btdevs/bt-toolset-demos/-/raw/main/bosa/screenshots/bosa-music-250-300.jpg",
    "demo_url": "https://demo.bosathemes.com/bosa/music/",
    "plugins": [
      {
        "name": "Contact Form 7",
        "slug": "contact-form-7",
        "main_file": "wp-contact-form-7.php"
      },
      {
        "name": "Sina Extension for Elementor",
        "slug": "sina-extension-for-elementor"
      },
      {
        "name": "WooCommerce",
        "slug": "woocommerce"
      }
    ]
  },
  {
    "title": "Corporate",
    "is_pro": true,
    "pro_url": "https://bosathemes.com/bosa-pro/#pricing",
    "type": "elementor",
    "author": "Bosa Themes",
    "keywords": ["corporate", "multipurpose"],
    "categories": ["business"],
    "template_url": {
      "content": "https://gitlab.com/btdevs/bt-toolset-demos/-/raw/main/bosa/demos/corporate/corporate/content.json",
      "options": "https://gitlab.com/btdevs/bt-toolset-demos/-/raw/main/bosa/demos/corporate/corporate/options.json",
      "widgets": "https://gitlab.com/btdevs/bt-toolset-demos/-/raw/main/bosa/demos/corporate/corporate/widgets.json"
    },
    "screenshot_url": "https://gitlab.com/btdevs/bt-toolset-demos/-/raw/main/bosa/screenshots/bosa-corporate-250-300.jpg",
    "demo_url": "https://demo.bosathemes.com/bosa/corporate/",
    "plugins": [
      {
        "name": "Contact Form 7",
        "slug": "contact-form-7",
        "main_file": "wp-contact-form-7.php"
      },
      {
        "name": "Sina Extension for Elementor",
        "slug": "sina-extension-for-elementor"
      },
      {
        "name": "WooCommerce",
        "slug": "woocommerce"
      }
    ]
  },
  {
    "title": "Finance",
    "is_pro": true,
    "pro_url": "https://bosathemes.com/bosa-pro/#pricing",
    "type": "elementor",
    "author": "Bosa Themes",
    "keywords": ["finance", "multipurpose"],
    "categories": ["business"],
    "template_url": {
      "content": "https://gitlab.com/btdevs/bt-toolset-demos/-/raw/main/bosa/demos/finance/content.json",
      "options": "https://gitlab.com/btdevs/bt-toolset-demos/-/raw/main/bosa/demos/finance/options.json",
      "widgets": "https://gitlab.com/btdevs/bt-toolset-demos/-/raw/main/bosa/demos/finance/widgets.json"
    },
    "screenshot_url": "https://gitlab.com/btdevs/bt-toolset-demos/-/raw/main/bosa/screenshots/bosa-finance-250-300.jpg",
    "demo_url": "https://demo.bosathemes.com/bosa/finance/",
    "plugins": [
      {
        "name": "Contact Form 7",
        "slug": "contact-form-7",
        "main_file": "wp-contact-form-7.php"
      },
      {
        "name": "Sina Extension for Elementor",
        "slug": "sina-extension-for-elementor"
      },
      {
        "name": "WooCommerce",
        "slug": "woocommerce"
      }
    ]
  },
  {
    "title": "Business",
    "is_pro": true,
    "pro_url": "https://bosathemes.com/bosa-pro/#pricing",
    "type": "elementor",
    "author": "Bosa Themes",
    "keywords": ["business", "multipurpose"],
    "categories": ["business"],
    "template_url": {
      "content": "https://gitlab.com/btdevs/bt-toolset-demos/-/raw/main/bosa/demos/business/business01/content.json",
      "options": "https://gitlab.com/btdevs/bt-toolset-demos/-/raw/main/bosa/demos/business/business01/options.json",
      "widgets": "https://gitlab.com/btdevs/bt-toolset-demos/-/raw/main/bosa/demos/business/business01/widgets.json"
    },
    "screenshot_url": "https://gitlab.com/btdevs/bt-toolset-demos/-/raw/main/bosa/screenshots/bosa-business-01-250-300.jpg",
    "demo_url": "https://demo.bosathemes.com/bosa/business/",
    "plugins": [
      {
        "name": "Contact Form 7",
        "slug": "contact-form-7",
        "main_file": "wp-contact-form-7.php"
      },
      {
        "name": "Sina Extension for Elementor",
        "slug": "sina-extension-for-elementor"
      },
      {
        "name": "WooCommerce",
        "slug": "woocommerce"
      }
    ]
  },
  {
    "title": "Business 02",
    "is_pro": true,
    "pro_url": "https://bosathemes.com/bosa-pro/#pricing",
    "type": "elementor",
    "author": "Bosa Themes",
    "keywords": ["business", "business02", "multipurpose"],
    "categories": ["business"],
    "template_url": {
      "content": "https://gitlab.com/btdevs/bt-toolset-demos/-/raw/main/bosa/demos/business/business02/content.json",
      "options": "https://gitlab.com/btdevs/bt-toolset-demos/-/raw/main/bosa/demos/business/business02/options.json",
      "widgets": "https://gitlab.com/btdevs/bt-toolset-demos/-/raw/main/bosa/demos/business/business02/widgets.json"
    },
    "screenshot_url": "https://gitlab.com/btdevs/bt-toolset-demos/-/raw/main/bosa/screenshots/bosa-business-02-250-300.jpg",
    "demo_url": "https://demo.bosathemes.com/bosa/business-02/",
    "plugins": [
      {
        "name": "Contact Form 7",
        "slug": "contact-form-7",
        "main_file": "wp-contact-form-7.php"
      },
      {
        "name": "Sina Extension for Elementor",
        "slug": "sina-extension-for-elementor"
      },
      {
        "name": "WooCommerce",
        "slug": "woocommerce"
      }
    ]
  },
  {
    "title": "Medical",
    "is_pro": true,
    "pro_url": "https://bosathemes.com/bosa-pro/#pricing",
    "type": "elementor",
    "author": "Bosa Themes",
    "keywords": ["medical", "multipurpose"],
    "categories": ["others"],
    "template_url": {
      "content": "https://gitlab.com/btdevs/bt-toolset-demos/-/raw/main/bosa/demos/medical/content.json",
      "options": "https://gitlab.com/btdevs/bt-toolset-demos/-/raw/main/bosa/demos/medical/options.json",
      "widgets": "https://gitlab.com/btdevs/bt-toolset-demos/-/raw/main/bosa/demos/medical/widgets.json"
    },
    "screenshot_url": "https://gitlab.com/btdevs/bt-toolset-demos/-/raw/main/bosa/screenshots/bosa-medical-250-300.jpg",
    "demo_url": "https://demo.bosathemes.com/bosa/medical/",
    "plugins": [
      {
        "name": "Contact Form 7",
        "slug": "contact-form-7",
        "main_file": "wp-contact-form-7.php"
      },
      {
        "name": "Sina Extension for Elementor",
        "slug": "sina-extension-for-elementor"
      },
      {
        "name": "WooCommerce",
        "slug": "woocommerce"
      }
    ]
  },
  {
    "title": "Education",
    "is_pro": true,
    "pro_url": "https://bosathemes.com/bosa-pro/#pricing",
    "type": "elementor",
    "author": "Bosa Themes",
    "keywords": ["education", "multipurpose"],
    "categories": ["others"],
    "template_url": {
      "content": "https://gitlab.com/btdevs/bt-toolset-demos/-/raw/main/bosa/demos/education/content.json",
      "options": "https://gitlab.com/btdevs/bt-toolset-demos/-/raw/main/bosa/demos/education/options.json",
      "widgets": "https://gitlab.com/btdevs/bt-toolset-demos/-/raw/main/bosa/demos/education/widgets.json"
    },
    "screenshot_url": "https://gitlab.com/btdevs/bt-toolset-demos/-/raw/main/bosa/screenshots/bosa-education-250-300.jpg",
    "demo_url": "https://demo.bosathemes.com/bosa/education/",
    "plugins": [
      {
        "name": "Contact Form 7",
        "slug": "contact-form-7",
        "main_file": "wp-contact-form-7.php"
      },
      {
        "name": "Sina Extension for Elementor",
        "slug": "sina-extension-for-elementor"
      },
      {
        "name": "WooCommerce",
        "slug": "woocommerce"
      }
    ]
  },
  {
    "title": "Portfolio",
    "is_pro": true,
    "pro_url": "https://bosathemes.com/bosa-pro/#pricing",
    "type": "elementor",
    "author": "Bosa Themes",
    "keywords": ["portfolio", "multipurpose"],
    "categories": ["portfolio"],
    "template_url": {
      "content": "https://gitlab.com/btdevs/bt-toolset-demos/-/raw/main/bosa/demos/portfolio/content.json",
      "options": "https://gitlab.com/btdevs/bt-toolset-demos/-/raw/main/bosa/demos/portfolio/options.json",
      "widgets": "https://gitlab.com/btdevs/bt-toolset-demos/-/raw/main/bosa/demos/portfolio/widgets.json"
    },
    "screenshot_url": "https://gitlab.com/btdevs/bt-toolset-demos/-/raw/main/bosa/screenshots/bosa-portfolio-250-300.jpg",
    "demo_url": "https://demo.bosathemes.com/bosa/portfolio/",
    "plugins": [
      {
        "name": "Contact Form 7",
        "slug": "contact-form-7",
        "main_file": "wp-contact-form-7.php"
      },
      {
        "name": "Sina Extension for Elementor",
        "slug": "sina-extension-for-elementor"
      },
      {
        "name": "WooCommerce",
        "slug": "woocommerce"
      }
    ]
  },
  {
    "title": "Charity",
    "is_pro": true,
    "pro_url": "https://bosathemes.com/bosa-pro/#pricing",
    "type": "elementor",
    "author": "Bosa Themes",
    "keywords": ["charity", "multipurpose"],
    "categories": ["non-profit"],
    "template_url": {
      "content": "https://gitlab.com/btdevs/bt-toolset-demos/-/raw/main/bosa/demos/charity/charity/content.json",
      "options": "https://gitlab.com/btdevs/bt-toolset-demos/-/raw/main/bosa/demos/charity/charity/options.json",
      "widgets": "https://gitlab.com/btdevs/bt-toolset-demos/-/raw/main/bosa/demos/charity/charity/widgets.json"
    },
    "screenshot_url": "https://gitlab.com/btdevs/bt-toolset-demos/-/raw/main/bosa/screenshots/bosa-charity-250-300.jpg",
    "demo_url": "https://demo.bosathemes.com/bosa/charity/",
    "plugins": [
      {
        "name": "Contact Form 7",
        "slug": "contact-form-7",
        "main_file": "wp-contact-form-7.php"
      },
      {
        "name": "Sina Extension for Elementor",
        "slug": "sina-extension-for-elementor"
      },
      {
        "name": "WooCommerce",
        "slug": "woocommerce"
      }
    ]
  },
  {
    "title": "Construction",
    "is_pro": true,
    "pro_url": "https://bosathemes.com/bosa-pro/#pricing",
    "type": "elementor",
    "author": "Bosa Themes",
    "keywords": ["construction", "multipurpose"],
    "categories": ["business"],
    "template_url": {
      "content": "https://gitlab.com/btdevs/bt-toolset-demos/-/raw/main/bosa/demos/construction/content.json",
      "options": "https://gitlab.com/btdevs/bt-toolset-demos/-/raw/main/bosa/demos/construction/options.json",
      "widgets": "https://gitlab.com/btdevs/bt-toolset-demos/-/raw/main/bosa/demos/construction/widgets.json"
    },
    "screenshot_url": "https://gitlab.com/btdevs/bt-toolset-demos/-/raw/main/bosa/screenshots/bosa-construction-250-300.jpg",
    "demo_url": "https://demo.bosathemes.com/bosa/construction/",
    "plugins": [
      {
        "name": "Contact Form 7",
        "slug": "contact-form-7",
        "main_file": "wp-contact-form-7.php"
      },
      {
        "name": "Sina Extension for Elementor",
        "slug": "sina-extension-for-elementor"
      },
      {
        "name": "WooCommerce",
        "slug": "woocommerce"
      }
    ]
  },
  {
    "title": "Photography",
    "is_pro": true,
    "pro_url": "https://bosathemes.com/bosa-pro/#pricing",
    "type": "elementor",
    "author": "Bosa Themes",
    "keywords": ["photography", "multipurpose"],
    "categories": ["business"],
    "template_url": {
      "content": "https://gitlab.com/btdevs/bt-toolset-demos/-/raw/main/bosa/demos/photography/content.json",
      "options": "https://gitlab.com/btdevs/bt-toolset-demos/-/raw/main/bosa/demos/photography/options.json",
      "widgets": "https://gitlab.com/btdevs/bt-toolset-demos/-/raw/main/bosa/demos/photography/widgets.json"
    },
    "screenshot_url": "https://gitlab.com/btdevs/bt-toolset-demos/-/raw/main/bosa/screenshots/bosa-photography-250-300.jpg",
    "demo_url": "https://demo.bosathemes.com/bosa/photography/",
    "plugins": [
      {
        "name": "Contact Form 7",
        "slug": "contact-form-7",
        "main_file": "wp-contact-form-7.php"
      },
      {
        "name": "Sina Extension for Elementor",
        "slug": "sina-extension-for-elementor"
      },
      {
        "name": "WooCommerce",
        "slug": "woocommerce"
      }
    ]
  },
  {
    "title": "Magazine",
    "is_pro": true,
    "pro_url": "https://bosathemes.com/bosa-pro/#pricing",
    "type": "elementor",
    "author": "Bosa Themes",
    "keywords": ["magazine", "multipurpose"],
    "categories": ["others"],
    "template_url": {
      "content": "https://gitlab.com/btdevs/bt-toolset-demos/-/raw/main/bosa/demos/magazine/content.json",
      "options": "https://gitlab.com/btdevs/bt-toolset-demos/-/raw/main/bosa/demos/magazine/options.json",
      "widgets": "https://gitlab.com/btdevs/bt-toolset-demos/-/raw/main/bosa/demos/magazine/widgets.json"
    },
    "screenshot_url": "https://gitlab.com/btdevs/bt-toolset-demos/-/raw/main/bosa/screenshots/bosa-magazine-250-300.jpg",
    "demo_url": "https://demo.bosathemes.com/bosa/magazine/",
    "plugins": [
      {
        "name": "Contact Form 7",
        "slug": "contact-form-7",
        "main_file": "wp-contact-form-7.php"
      },
      {
        "name": "Sina Extension for Elementor",
        "slug": "sina-extension-for-elementor"
      },
      {
        "name": "WooCommerce",
        "slug": "woocommerce"
      }
    ]
  },
  {
    "title": "Travel",
    "is_pro": true,
    "pro_url": "https://bosathemes.com/bosa-pro/#pricing",
    "type": "elementor",
    "author": "Bosa Themes",
    "keywords": ["travel", "multipurpose"],
    "categories": ["business"],
    "template_url": {
      "content": "https://gitlab.com/btdevs/bt-toolset-demos/-/raw/main/bosa/demos/travel/content.json",
      "options": "https://gitlab.com/btdevs/bt-toolset-demos/-/raw/main/bosa/demos/travel/options.json",
      "widgets": "https://gitlab.com/btdevs/bt-toolset-demos/-/raw/main/bosa/demos/travel/widgets.json"
    },
    "screenshot_url": "https://gitlab.com/btdevs/bt-toolset-demos/-/raw/main/bosa/screenshots/bosa-travel-250-300.jpg",
    "demo_url": "https://demo.bosathemes.com/bosa/travel/",
    "plugins": [
      {
        "name": "Contact Form 7",
        "slug": "contact-form-7",
        "main_file": "wp-contact-form-7.php"
      },
      {
        "name": "Sina Extension for Elementor",
        "slug": "sina-extension-for-elementor"
      },
      {
        "name": "WooCommerce",
        "slug": "woocommerce"
      }
    ]
  },
  {
    "title": "Shopkeeper",
    "is_pro": true,
    "pro_url": "https://bosathemes.com/bosa-pro/#pricing",
    "type": "elementor",
    "author": "Bosa Themes",
    "keywords": ["shop", "multipurpose"],
    "categories": ["ecommerce"],
    "template_url": {
      "content": "https://gitlab.com/btdevs/bt-toolset-demos/-/raw/main/bosa/demos/shopkeeper/content.json",
      "options": "https://gitlab.com/btdevs/bt-toolset-demos/-/raw/main/bosa/demos/shopkeeper/options.json",
      "widgets": "https://gitlab.com/btdevs/bt-toolset-demos/-/raw/main/bosa/demos/shopkeeper/widgets.json"
    },
    "screenshot_url": "https://gitlab.com/btdevs/bt-toolset-demos/-/raw/main/bosa/screenshots/bosa-shopkeeper-250-300.jpg",
    "demo_url": "https://demo.bosathemes.com/bosa/shopkeeper/",
    "plugins": [
      {
        "name": "Contact Form 7",
        "slug": "contact-form-7",
        "main_file": "wp-contact-form-7.php"
      },
      {
        "name": "Sina Extension for Elementor",
        "slug": "sina-extension-for-elementor"
      },
      {
        "name": "WooCommerce",
        "slug": "woocommerce"
      },
      {
        "name": "WooLentor",
        "slug": "woolentor",
        "main_file": "woolentor_addons_elementor.php"
      },
      {
        "name": "YITH WooCommerce Compare",
        "slug": "yith-woocommerce-compare",
        "main_file": "init.php"
      },
      {
        "name": "YITH WooCommerce Quick View",
        "slug": "yith-woocommerce-quick-view",
        "main_file": "init.php"
      },
      {
        "name": "YITH WooCommerce Wishlist",
        "slug": "yith-woocommerce-wishlist",
        "main_file": "init.php"
      }
    ]
  },
  {
    "title": "Restaurant",
    "is_pro": true,
    "pro_url": "https://bosathemes.com/bosa-pro/#pricing",
    "type": "elementor",
    "author": "Bosa Themes",
    "keywords": ["restaurant", "multipurpose"],
    "categories": ["business"],
    "template_url": {
      "content": "https://gitlab.com/btdevs/bt-toolset-demos/-/raw/main/bosa/demos/restaurant/content.json",
      "options": "https://gitlab.com/btdevs/bt-toolset-demos/-/raw/main/bosa/demos/restaurant/options.json",
      "widgets": "https://gitlab.com/btdevs/bt-toolset-demos/-/raw/main/bosa/demos/restaurant/widgets.json"
    },
    "screenshot_url": "https://gitlab.com/btdevs/bt-toolset-demos/-/raw/main/bosa/screenshots/bosa-restaurant-250-300.jpg",
    "demo_url": "https://demo.bosathemes.com/bosa/restaurant/",
    "plugins": [
      {
        "name": "Contact Form 7",
        "slug": "contact-form-7",
        "main_file": "wp-contact-form-7.php"
      },
      {
        "name": "Sina Extension for Elementor",
        "slug": "sina-extension-for-elementor"
      },
      {
        "name": "WooCommerce",
        "slug": "woocommerce"
      }
    ]
  },
  {
    "title": "Fitness",
    "is_pro": true,
    "pro_url": "https://bosathemes.com/bosa-pro/#pricing",
    "type": "elementor",
    "author": "Bosa Themes",
    "keywords": ["fitness", "multipurpose"],
    "categories": ["business"],
    "template_url": {
      "content": "https://gitlab.com/btdevs/bt-toolset-demos/-/raw/main/bosa/demos/fitness/content.json",
      "options": "https://gitlab.com/btdevs/bt-toolset-demos/-/raw/main/bosa/demos/fitness/options.json",
      "widgets": "https://gitlab.com/btdevs/bt-toolset-demos/-/raw/main/bosa/demos/fitness/widgets.json"
    },
    "screenshot_url": "https://gitlab.com/btdevs/bt-toolset-demos/-/raw/main/bosa/screenshots/bosa-fitness-250-300.jpg",
    "demo_url": "https://demo.bosathemes.com/bosa/fitness/",
    "plugins": [
      {
        "name": "Contact Form 7",
        "slug": "contact-form-7",
        "main_file": "wp-contact-form-7.php"
      },
      {
        "name": "Sina Extension for Elementor",
        "slug": "sina-extension-for-elementor"
      },
      {
        "name": "WooCommerce",
        "slug": "woocommerce"
      }
    ]
  },
  {
    "title": "Consultancy",
    "is_pro": true,
    "pro_url": "https://bosathemes.com/bosa-pro/#pricing",
    "type": "elementor",
    "author": "Bosa Themes",
    "keywords": ["consultancy", "multipurpose"],
    "categories": ["business"],
    "template_url": {
      "content": "https://gitlab.com/btdevs/bt-toolset-demos/-/raw/main/bosa/demos/consultancy/content.json",
      "options": "https://gitlab.com/btdevs/bt-toolset-demos/-/raw/main/bosa/demos/consultancy/options.json",
      "widgets": "https://gitlab.com/btdevs/bt-toolset-demos/-/raw/main/bosa/demos/consultancy/widgets.json"
    },
    "screenshot_url": "https://gitlab.com/btdevs/bt-toolset-demos/-/raw/main/bosa/screenshots/bosa-consultancy-250-300.jpg",
    "demo_url": "https://demo.bosathemes.com/bosa/consultancy/",
    "plugins": [
      {
        "name": "Contact Form 7",
        "slug": "contact-form-7",
        "main_file": "wp-contact-form-7.php"
      },
      {
        "name": "Sina Extension for Elementor",
        "slug": "sina-extension-for-elementor"
      },
      {
        "name": "WooCommerce",
        "slug": "woocommerce"
      }
    ]
  },
  {
    "title": "Travel Blog",
    "is_pro": true,
    "pro_url": "https://bosathemes.com/bosa-pro/#pricing",
    "type": "gutenberg",
    "author": "Bosa Themes",
    "keywords": ["travel", "blog", "multipurpose"],
    "categories": ["blog"],
    "template_url": {
      "content": "https://gitlab.com/btdevs/bt-toolset-demos/-/raw/main/bosa/demos/blog/blog02/content.json",
      "options": "https://gitlab.com/btdevs/bt-toolset-demos/-/raw/main/bosa/demos/blog/blog02/options.json",
      "widgets": "https://gitlab.com/btdevs/bt-toolset-demos/-/raw/main/bosa/demos/blog/blog02/widgets.json"
    },
    "screenshot_url": "https://gitlab.com/btdevs/bt-toolset-demos/-/raw/main/bosa/screenshots/bosa-blog-02-250-300.jpg",
    "demo_url": "https://demo.bosathemes.com/bosa/travel-blog/",
    "plugins": [
      {
        "name": "Contact Form 7",
        "slug": "contact-form-7",
        "main_file": "wp-contact-form-7.php"
      },
      {
        "name": "WooCommerce",
        "slug": "woocommerce"
      }
    ]
  },
  {
    "title": "News Blog",
    "is_pro": true,
    "pro_url": "https://bosathemes.com/bosa-pro/#pricing",
    "type": "gutenberg",
    "author": "Bosa Themes",
    "keywords": ["news", "blog", "multipurpose"],
    "categories": ["blog"],
    "template_url": {
      "content": "https://gitlab.com/btdevs/bt-toolset-demos/-/raw/main/bosa/demos/blog/news-blog/content.json",
      "options": "https://gitlab.com/btdevs/bt-toolset-demos/-/raw/main/bosa/demos/blog/news-blog/options.json",
      "widgets": "https://gitlab.com/btdevs/bt-toolset-demos/-/raw/main/bosa/demos/blog/news-blog/widgets.json"
    },
    "screenshot_url": "https://gitlab.com/btdevs/bt-toolset-demos/-/raw/main/bosa/screenshots/bosa-news-blog-250-300.jpg",
    "demo_url": "https://demo.bosathemes.com/bosa/news-blog/",
    "plugins": [
      {
        "name": "Contact Form 7",
        "slug": "contact-form-7",
        "main_file": "wp-contact-form-7.php"
      },
      {
        "name": "WooCommerce",
        "slug": "woocommerce"
      }
    ]
  },
  {
    "title": "Fashion Dark Blog",
    "is_pro": false,
    "type": "gutenberg",
    "author": "Bosa Themes",
    "keywords": ["fashion", "dark", "blog", "multipurpose"],
    "categories": ["blog"],
    "template_url": {
      "content": "https://gitlab.com/btdevs/bt-toolset-demos/-/raw/main/bosa/demos/blog/blog03/content.json",
      "options": "https://gitlab.com/btdevs/bt-toolset-demos/-/raw/main/bosa/demos/blog/blog03/options.json",
      "widgets": "https://gitlab.com/btdevs/bt-toolset-demos/-/raw/main/bosa/demos/blog/blog03/widgets.json"
    },
    "screenshot_url": "https://gitlab.com/btdevs/bt-toolset-demos/-/raw/main/bosa/screenshots/bosa-blog-03-250-300.jpg",
    "demo_url": "https://demo.bosathemes.com/bosa/fashion-blog/",
    "plugins": [
      {
        "name": "Contact Form 7",
        "slug": "contact-form-7",
        "main_file": "wp-contact-form-7.php"
      },
      {
        "name": "WooCommerce",
        "slug": "woocommerce"
      }
    ]
  },
  {
    "title": "Lifestyle Blog",
    "is_pro": false,
    "type": "gutenberg",
    "author": "Bosa Themes",
    "keywords": ["lifestyle", "blog", "multipurpose"],
    "categories": ["blog"],
    "template_url": {
      "content": "https://gitlab.com/btdevs/bt-toolset-demos/-/raw/main/bosa/demos/blog/blog01/content.json",
      "options": "https://gitlab.com/btdevs/bt-toolset-demos/-/raw/main/bosa/demos/blog/blog01/options.json",
      "widgets": "https://gitlab.com/btdevs/bt-toolset-demos/-/raw/main/bosa/demos/blog/blog01/widgets.json"
    },
    "screenshot_url": "https://gitlab.com/btdevs/bt-toolset-demos/-/raw/main/bosa/screenshots/bosa-blog-01-250-300.jpg",
    "demo_url": "https://demo.bosathemes.com/bosa/lifestyle-blog/",
    "plugins": [
      {
        "name": "Contact Form 7",
        "slug": "contact-form-7",
        "main_file": "wp-contact-form-7.php"
      },
      {
        "name": "WooCommerce",
        "slug": "woocommerce"
      }
    ]
  },
  {
    "title": "App",
    "is_pro": false,
    "type": "elementor",
    "author": "Bosa Themes",
    "keywords": ["app", "multipurpose"],
    "categories": ["business"],
    "template_url": {
      "content": "https://gitlab.com/btdevs/bt-toolset-demos/-/raw/main/bosa/demos/app/content.json",
      "options": "https://gitlab.com/btdevs/bt-toolset-demos/-/raw/main/bosa/demos/app/options.json",
      "widgets": "https://gitlab.com/btdevs/bt-toolset-demos/-/raw/main/bosa/demos/app/widgets.json"
    },
    "screenshot_url": "https://gitlab.com/btdevs/bt-toolset-demos/-/raw/main/bosa/screenshots/bosa-app-250-300.jpg",
    "demo_url": "https://demo.bosathemes.com/bosa/app/",
    "plugins": [
      {
        "name": "Contact Form 7",
        "slug": "contact-form-7",
        "main_file": "wp-contact-form-7.php"
      },
      {
        "name": "Sina Extension for Elementor",
        "slug": "sina-extension-for-elementor"
      },
      {
        "name": "WooCommerce",
        "slug": "woocommerce"
      }
    ]
  },
  {
    "title": "Insurance",
    "is_pro": false,
    "type": "elementor",
    "author": "Bosa Themes",
    "keywords": ["insurance", "multipurpose"],
    "categories": ["business"],
    "template_url": {
      "content": "https://gitlab.com/btdevs/bt-toolset-demos/-/raw/main/bosa/demos/insurance/content.json",
      "options": "https://gitlab.com/btdevs/bt-toolset-demos/-/raw/main/bosa/demos/insurance/options.json",
      "widgets": "https://gitlab.com/btdevs/bt-toolset-demos/-/raw/main/bosa/demos/insurance/widgets.json"
    },
    "screenshot_url": "https://gitlab.com/btdevs/bt-toolset-demos/-/raw/main/bosa/screenshots/bosa-insurance-250-300.jpg",
    "demo_url": "https://demo.bosathemes.com/bosa/insurance/",
    "plugins": [
      {
        "name": "Contact Form 7",
        "slug": "contact-form-7",
        "main_file": "wp-contact-form-7.php"
      },
      {
        "name": "Sina Extension for Elementor",
        "slug": "sina-extension-for-elementor"
      },
      {
        "name": "WooCommerce",
        "slug": "woocommerce"
      }
    ]
  },
  {
    "title": "Marketing",
    "is_pro": false,
    "type": "elementor",
    "author": "Bosa Themes",
    "keywords": ["marketing", "multipurpose"],
    "categories": ["business"],
    "template_url": {
      "content": "https://gitlab.com/btdevs/bt-toolset-demos/-/raw/main/bosa/demos/marketing/content.json",
      "options": "https://gitlab.com/btdevs/bt-toolset-demos/-/raw/main/bosa/demos/marketing/options.json",
      "widgets": "https://gitlab.com/btdevs/bt-toolset-demos/-/raw/main/bosa/demos/marketing/widgets.json"
    },
    "screenshot_url": "https://gitlab.com/btdevs/bt-toolset-demos/-/raw/main/bosa/screenshots/bosa-marketing-250-300.jpg",
    "demo_url": "https://demo.bosathemes.com/bosa/marketing/",
    "plugins": [
      {
        "name": "Contact Form 7",
        "slug": "contact-form-7",
        "main_file": "wp-contact-form-7.php"
      },
      {
        "name": "Sina Extension for Elementor",
        "slug": "sina-extension-for-elementor"
      },
      {
        "name": "WooCommerce",
        "slug": "woocommerce"
      }
    ]
  },
  {
    "title": "Coming Soon",
    "is_pro": true,
    "pro_url": "https://bosathemes.com/bosa-pro/#pricing",
    "type": "gutenberg",
    "author": "Bosa Themes",
    "keywords": ["coming","soon", "coming soon", "multipurpose"],
    "categories": ["others"],
    "template_url": {
      "content": "https://gitlab.com/btdevs/bt-toolset-demos/-/raw/main/bosa/demos/coming-soon/content.json",
      "options": "https://gitlab.com/btdevs/bt-toolset-demos/-/raw/main/bosa/demos/coming-soon/options.json",
      "widgets": "https://gitlab.com/btdevs/bt-toolset-demos/-/raw/main/bosa/demos/coming-soon/widgets.json"
    },
    "screenshot_url": "https://gitlab.com/btdevs/bt-toolset-demos/-/raw/main/bosa/screenshots/bosa-coming-soon-250-300.jpg",
    "demo_url": "https://demo.bosathemes.com/bosa/coming-soon/"
  }
]